[{"key":"vs", "offset": [
{"suffix":"f","index":2},
{"suffix":"e","index":5},{"suffix":"tr","index":6},{"suffix":"to","index":7},{"suffix":"tos","index":8},
{"suffix":"a","index":9},{"suffix":"tpl","index":10},{"suffix":"tpls","index":11},
{"suffix":"1a","index":12},{"suffix":"5a","index":13},{"suffix":"10a","index":14},{"suffix":"15a","index":15},{"suffix":"20a","index":16},
{"suffix":"21a","index":17},{"suffix":"22a","index":18},{"suffix":"23a","index":19},{"suffix":"24a","index":20},{"suffix":"25a","index":21},
{"suffix":"30a","index":22},{"suffix":"35a","index":23},{"suffix":"40a","index":24},{"suffix":"45a","index":25},{"suffix":"50a","index":26},
{"suffix":"55a","index":27},{"suffix":"60a","index":28},{"suffix":"65a","index":29},{"suffix":"70a","index":30},{"suffix":"75a","index":31},
{"suffix":"80a","index":32},{"suffix":"85a","index":33},{"suffix":"90a","index":34},{"suffix":"95a","index":35},{"suffix":"100a","index":36},
{"suffix":"m100a","index":37},{"suffix":"id","index":38},
{"suffix":"sle","index":39},{"suffix":"sles","index":40},{"suffix":"sl","index":41},{"suffix":"sls","index":42},{"suffix":"nslne","index":43},{"suffix":"nslnes","index":44}]},
{"key":"vc", "offset": [
{"suffix":"e", "index":2},{"suffix":"tr", "index":3},{"suffix":"to", "index":4},{"suffix":"a", "index":5},{"suffix":"tpl", "index":6},
{"suffix":"1a","index":7},{"suffix":"5a","index":8},{"suffix":"10a","index":9},{"suffix":"15a","index":10},{"suffix":"20a","index":11},
{"suffix":"21a","index":12},{"suffix":"22a","index":13},{"suffix":"23a","index":14},{"suffix":"24a","index":15},{"suffix":"25a","index":16},
{"suffix":"30a","index":17},{"suffix":"35a","index":18},{"suffix":"40a","index":19},{"suffix":"45a","index":20},{"suffix":"50a","index":21},
{"suffix":"55a","index":22},{"suffix":"60a","index":23},{"suffix":"65a","index":24},{"suffix":"70a","index":25},{"suffix":"75a","index":26},
{"suffix":"80a","index":27},{"suffix":"85a","index":28},{"suffix":"90a","index":29},{"suffix":"95a","index":30},{"suffix":"100a","index":31},
{"suffix":"m100a","index":32},{"suffix":"id","index":33},
{"suffix":"sle","index":34},{"suffix":"sl","index":35},{"suffix":"nslne","index":36}]},
{"key":"vv", "offset": [
{"suffix":"e", "index":2},{"suffix":"tr", "index":3},{"suffix":"to", "index":4},{"suffix":"a", "index":5},{"suffix":"tpl", "index":6},
{"suffix":"1a","index":7},{"suffix":"5a","index":8},{"suffix":"10a","index":9},{"suffix":"15a","index":10},{"suffix":"20a","index":11},
{"suffix":"21a","index":12},{"suffix":"22a","index":13},{"suffix":"23a","index":14},{"suffix":"24a","index":15},{"suffix":"25a","index":16},
{"suffix":"30a","index":17},{"suffix":"35a","index":18},{"suffix":"40a","index":19},{"suffix":"45a","index":20},{"suffix":"50a","index":21},
{"suffix":"55a","index":22},{"suffix":"60a","index":23},{"suffix":"65a","index":24},{"suffix":"70a","index":25},{"suffix":"75a","index":26},
{"suffix":"80a","index":27},{"suffix":"85a","index":28},{"suffix":"90a","index":29},{"suffix":"95a","index":30},{"suffix":"100a","index":31},
{"suffix":"m100a","index":32},{"suffix":"id","index":33},
{"suffix":"sle","index":34},{"suffix":"sl","index":35},{"suffix":"nslne","index":36}]},
{"key":"fs", "offset": [
{"suffix":"e", "index":3},{"suffix":"tr", "index":4},{"suffix":"to", "index":5},{"suffix":"tos", "index":6},
{"suffix":"a", "index":7},{"suffix":"tpl", "index":8},{"suffix":"tpls", "index":9},
{"suffix":"1a","index":10},{"suffix":"5a","index":11},{"suffix":"10a","index":12},{"suffix":"15a","index":13},{"suffix":"20a","index":14},
{"suffix":"21a","index":15},{"suffix":"22a","index":16},{"suffix":"23a","index":17},{"suffix":"24a","index":18},{"suffix":"25a","index":19},
{"suffix":"30a","index":20},{"suffix":"35a","index":21},{"suffix":"40a","index":22},{"suffix":"45a","index":23},{"suffix":"50a","index":24},
{"suffix":"55a","index":25},{"suffix":"60a","index":26},{"suffix":"65a","index":27},{"suffix":"70a","index":28},{"suffix":"75a","index":29},
{"suffix":"80a","index":30},{"suffix":"85a","index":31},{"suffix":"90a","index":32},{"suffix":"95a","index":33},{"suffix":"100a","index":34},
{"suffix":"m100a","index":35},{"suffix":"id","index":36},
{"suffix":"sle","index":37},{"suffix":"sles","index":38},{"suffix":"sl","index":39},{"suffix":"sls","index":40},{"suffix":"nslne","index":41},{"suffix":"nslnes","index":42}]},
{"key":"fc", "offset": [
{"suffix":"e", "index":2},{"suffix":"tr", "index":3},{"suffix":"to", "index":4},{"suffix":"a", "index":5},{"suffix":"tpl", "index":6},
{"suffix":"1a","index":7},{"suffix":"5a","index":8},{"suffix":"10a","index":9},{"suffix":"15a","index":10},{"suffix":"20a","index":11},
{"suffix":"21a","index":12},{"suffix":"22a","index":13},{"suffix":"23a","index":14},{"suffix":"24a","index":15},{"suffix":"25a","index":16},
{"suffix":"30a","index":17},{"suffix":"35a","index":18},{"suffix":"40a","index":19},{"suffix":"45a","index":20},{"suffix":"50a","index":21},
{"suffix":"55a","index":22},{"suffix":"60a","index":23},{"suffix":"65a","index":24},{"suffix":"70a","index":25},{"suffix":"75a","index":26},
{"suffix":"80a","index":27},{"suffix":"85a","index":28},{"suffix":"90a","index":29},{"suffix":"95a","index":30},{"suffix":"100a","index":31},
{"suffix":"m100a","index":32},{"suffix":"id","index":33},
{"suffix":"sle","index":34},{"suffix":"sl","index":35},{"suffix":"nslne","index":36}]},
{"key":"fv", "offset": [
{"suffix":"e", "index":2},{"suffix":"tr", "index":3},{"suffix":"to", "index":4},{"suffix":"a", "index":5},{"suffix":"tpl", "index":6},
{"suffix":"1a","index":7},{"suffix":"5a","index":8},{"suffix":"10a","index":9},{"suffix":"15a","index":10},{"suffix":"20a","index":11},
{"suffix":"21a","index":12},{"suffix":"22a","index":13},{"suffix":"23a","index":14},{"suffix":"24a","index":15},{"suffix":"25a","index":16},
{"suffix":"30a","index":17},{"suffix":"35a","index":18},{"suffix":"40a","index":19},{"suffix":"45a","index":20},{"suffix":"50a","index":21},
{"suffix":"55a","index":22},{"suffix":"60a","index":23},{"suffix":"65a","index":24},{"suffix":"70a","index":25},{"suffix":"75a","index":26},
{"suffix":"80a","index":27},{"suffix":"85a","index":28},{"suffix":"90a","index":29},{"suffix":"95a","index":30},{"suffix":"100a","index":31},
{"suffix":"m100a","index":32},{"suffix":"id","index":33},
{"suffix":"sle","index":34},{"suffix":"sl","index":35},{"suffix":"nslne","index":36}]}]