{ "concelhos": [
	{ "idc": "belmonte", "name": "Belmonte", "blogs": [ ], "freguesias": [
		{ "idf": "belmonte", "name": "Belmonte", "blogs": [ ], "heraldica": { "text": "Escudo de verde, uma prensa antiga de prata, acompanhada nos flancos de dois ramos de oliveira de ouro, frutados e real&ccedil;ados de negro, chefe de prata, carregado de duas cabras de p&uacute;rpura, a da dextra volvida em cortesia. Coroa mural de prata de tr&ecirc;s torres. Listel branco com a legenda a negro, em mai&uacute;sculas: \"BELMONTE\".", "source": "D.R.III S&eacute;rie n&deg; 259, de 05/11/93" }},
		{ "idf": "caria", "name": "Caria", "blogs": [ ], "heraldica": { "text": "Escudo de verde, uma torre de prata. Em chefe, uma estrela do mesmo metal. Coroa mural de prata de quatro torres. Listel vermelho com a legenda a negro, em mai&uacute;sculas: \"VILA DE CARIA\".", "source": "D.G. I S&eacute;rie, de 15/02/32" }},
		{ "idf": "colmeal_da_torre", "name": "Colmeal da Torre", "blogs": [ ], "heraldica": { "text": "Escudo de verde, torre de Centum Cellas, de prata, lavrada de negro, aberta e iluminada de vermelho; em chefe, ramo de oliveira de ouro, frutado de prata e posto em faixa; em campanha, lisonja de ouro. Coroa mural de prata de tr&ecirc;s torres. Listel branco, com a legenda a negro: \"COLMEAL DA TORRE\".", "source": "D.R.III S&eacute;rie n&deg; 58, de 09/03/00" }},
		{ "idf": "inguias", "name": "Inguias", "blogs": [ ], "heraldica": { "text": "Escudo de vermelho, drag&atilde;o de ouro real&ccedil;ado e a&ccedil;aimado de negro, entre duas enguias de ouro, real&ccedil;adas de negro e postas em pala; em campanha, lisonja de prata. Coroa mural de prata de tr&ecirc;s torres. Listel branco, com a legenda a negro: \"INGUIAS\".", "source": "D.R.III S&eacute;rie n&deg; 150, de 02/07/03" }},
		{ "idf": "macainhas", "name": "Ma&ccedil;ainhas", "blogs": [ ], "heraldica": { "text": "Escudo de azul, semeado alternadamente de fusos de fia&ccedil;&atilde;o de ouro, abertos e real&ccedil;ados de negro e de espigas de centeio de ouro; brocante, campan&aacute;rio de prata, real&ccedil;ado de negro, aberto do campo e com sino de ouro. Coroa mural de prata de tr&ecirc;s torres. Listel branco, com a legenda a negro: \"MA&Ccedil;AÍNHAS - BELMONTE\".", "source": "D.R.III S&eacute;rie n&deg;286, de 12/12/01" }},
		{ "idf": "sao_tiago_belmonte", "name": "S&atilde;o Tiago (Belmonte)", "blogs": [ ], "heraldica": { "text": "", "source": "" }}
	]},
	{ "idc": "castelo_branco", "name": "Castelo Branco", "blogs": [ ], "freguesias": [
		{ "idf": "alcains", "name": "Alcains", "blogs": [ "http://terradoscaes.blogspot.fr" ], "heraldica": { "text": "", "source": "" }},
		{ "idf": "almaceda", "name": "Almaceda", "blogs": [ ], "heraldica": { "text": "Escudo de ouro, bombo de vermelho com pele e cord&otilde;es de prata, com sua baqueta de negro encabada de vermelho; alinhadas em orla, 10 pinhas de verde real&ccedil;adas de prata. Coroa mural de prata de tr&ecirc;s torres. Listel branco, com a legenda a negro: \"Almaceda\".", "source": "D.R.II S&eacute;rie n&deg; 227, de 24/11/06" }},
		{ "idf": "benquerencas", "name": "Benqueren&ccedil;as", "blogs": [ ], "heraldica": { "text": "Escudo de p&uacute;rpura, p&eacute; de malmequer arrancado de prata, florido do mesmo e botoado de ouro; em chefe, cabra andante de prata, entre duas m&oacute;s de moinho de ouro, furadas do campo. Coroa mural de prata de tr&ecirc;s torres. Listel branco, com a legenda a negro: \"BENQUEREN&Ccedil;AS\".", "source": "D.R.III S&eacute;rie n&deg; 2, de 03/01/02" }},
		{ "idf": "cafede", "name": "Cafede", "blogs": [ ], "heraldica": { "text": "Escudo de azul, com ponte de dois arcos de prata, lavrada de negro, movente da ponta e dos flancos, encimada por ramo de oliveira de prata, frutado de ouro. Coroa mural de prata de tr&ecirc;s torres. Listel branco, com a legenda a negro: \"CAFEDE\".", "source": "D.R.III S&eacute;rie n&deg; 121, de 27/06/05" }},
		{ "idf": "castelo_branco", "name": "Castelo Branco", "blogs": [ ], "heraldica": { "text": "Escudo de prata, semeado de flores de vermelho, alternando com pequenas aves de azul e, brocante, uma balan&ccedil;a de negro, real&ccedil;ada de ouro. Coroa mural de prata de tr&ecirc;s torres. Listel branco, com a legenda a negro \"FREGUESIA de CASTELO BRANCO\".", "source": "D.R.II S&eacute;rie n&deg; 133, de 12/07/07" }},
		{ "idf": "cebolais_de_cima", "name": "Cebolais de Cima", "blogs": [ ], "heraldica": { "text": "Escudo de prata, roda dentada de negro; em chefe, cruz da Ordem do Templo (de vermelho), entre duas cebolas de sua cor, folhadas de verde. Coroa mural de prata de tr&ecirc;s torres. Listel branco com a legenda de negro: \"CEBOLAIS DE CIMA\".", "source": "D.R. III S&eacute;rie n&deg; 139, de 17/06/1999" }},
		{ "idf": "escalos_de_baixo", "name": "Escalos de Baixo", "blogs": [ ], "heraldica": { "text": "Escudo de prata, fontan&aacute;rio de negro, lavrado de prata e jorrando &aacute;gua de azul, entre dois ramos de oliveira de verde, frutados de negro; em campanha, ovelha de negro, ungulada e real&ccedil;ada de ouro. Coroa mural de prata de tr&ecirc;s torres. Listel branco, com a legenda a negro: \"ESCALOS de BAIXO\".", "source": "D.R.III S&eacute;rie n&deg; 190, de 19/08/02" }},
		{ "idf": "escalos_de_cima", "name": "Escalos de Cima", "blogs": [ ], "heraldica": { "text": "Escudo de negro, torre de campan&aacute;rio de ouro, lavrada e aberta do campo, com sino e rel&oacute;gio de prata, entre dois p&eacute;s de cravo de ouro, floridos de prata, passados em aspa e atados de prata, na ponta. Coroa mural de prata de tr&ecirc;s torres. Listel branco, com a legenda a negro: \"ESCALOS de CIMA\".", "source": "D.R.III S&eacute;rie n&deg; 240, de 16/10/01" }},
		{ "idf": "freixial_do_campo", "name": "Freixial do Campo", "blogs": [ ], "heraldica": { "text": "", "source": "" }},
		{ "idf": "juncal_do_campo", "name": "Juncal do Campo", "blogs": [ ], "heraldica": { "text": "Escudo de verde, junco de ouro arrancado e espigado; em chefe, ovelha de prata, passante, real&ccedil;ada de negro, entre dois ramos de oliveira de prata, frutados de ouro. Coroa mural de prata de tr&ecirc;s torres. Listel branco, com a legenda a negro: \"JUNCAL DO CAMPO\".", "source": "D.R.III S&eacute;rie n&deg; 112, de 13/05/04" }},
		{ "idf": "lardosa", "name": "Lardosa", "blogs": [ ], "heraldica": { "text": "Escudo de prata, ramo de loureiro de verde entre seis feij&otilde;es frades de sua cor, postos em faixa e alinhados em pala. Coroa mural de prata de quatro torres. Listel branco com a legenda de negro, em mai&uacute;sculas : \"LARDOSA\".", "source": "D.R.III S&eacute;rie n&deg; 177, de 01/08/96" }},
		{ "idf": "lourical_do_campo", "name": "Louri&ccedil;al do Campo", "blogs": [ "http://lourical.blogspot.fr" ], "heraldica": { "text": "Escudo de prata, monte de tr&ecirc;s c&ocirc;moros de verde, firmado nos flancos, movente de p&eacute; ondado de tr&ecirc;s pe&ccedil;as de prata e azul; em chefe, dois ramos de loureiro de verde, com os p&eacute;s passados em aspa. Coroa mural de prata de tr&ecirc;s torres. Listel branco, com a legenda a negro: \"LOURI&Ccedil;AL do CAMPO\".", "source": "D.R.III S&eacute;rie n&deg; 141, de 25/07/05" }},
		{ "idf": "lousa", "name": "Lousa", "blogs": [ ], "heraldica": { "text": "Escudo de prata, um fuste de coluna de azul entre dois ramos de oliveira de verde, frutados de negro e postos em pala; em chefe, cruz dos Templ&aacute;rios. Coroa mural de prata de tr&ecirc;s torres. Listel branco, com a legenda a negro: \"LOUSA - CASTELO BRANCO\".", "source": "D.R.III S&eacute;rie n&deg; 18, de 22/01/04" }},
		{ "idf": "malpica_do_tejo", "name": "Malpica do Tejo", "blogs": [ ], "heraldica": { "text": "Escudo de ouro, barra ondada de azul, carregada de duas burelas ondadas de prata, entre cruz da Ordem de Cristo e dois ramos passados em aspa, um de sobreiro, de verde, landado de vermelho e outro de oliveira, de verde e frutado de negro. Coroa mural de prata de tr&ecirc;s torres. Listel branco, com a legenda a negro: \"MALPICA DO TEJO\".", "source": "D.R.III S&eacute;rie n&deg; 11, de 14/01/02" }},
		{ "idf": "mata", "name": "Mata", "blogs": [ ], "heraldica": { "text": "Escudo de prata, drag&atilde;o alado de vermelho, real&ccedil;ado de ouro e, em orla, um ramo de silva, de verde, frutado de vermelho. Coroa mural de prata de tr&ecirc;s torres. Listel branco, com a legenda a negro: \"MATA - CASTELO BRANCO\".", "source": "D.R.III S&eacute;rie n&deg; 150, de 02/07/03" }},
		{ "idf": "monforte_da_beira", "name": "Monforte da Beira", "blogs": [ ], "heraldica": { "text": "Escudo de prata, castelo de negro aberto e frestado de vermelho e lavrado do campo; acantonados em chefe, dois ramos de sobreiro de verde. Coroa mural de prata de tr&ecirc;s torres. Listel branco, com a legenda a negro: \"MONFORTE da BEIRA\".", "source": "D.R. II S&eacute;rie n&deg; 126, de 02/07/2009" }},
		{ "idf": "ninho_do_acor", "name": "Ninho do A&ccedil;or", "blogs": [ "http://gentedaminhaterra.blogspot.fr", "http://ninhodoacor.blogspot.fr" ], "heraldica": { "text": "Escudo de vemelho, &aacute;rvore arrancada, de ouro, sustendo um ninho de prata; em chefe, a&ccedil;or de prata, real&ccedil;ado de negro. Coroa mural de prata de tr&ecirc;s torres. Listel branco, com a legenda a negro: \"NINHO do A&Ccedil;OR\".", "source": "D.R.III S&eacute;rie n&deg; 61, de 12/03/04" }},
		{ "idf": "povoa_de_rio_de_moinhos", "name": "P&oacute;voa de Rio de Moinhos", "blogs": [ "povoariomoinhos.blogspot.fr" ], "heraldica": { "text": "Escudo de ouro, com arma&ccedil;&atilde;o de moinho de vento de negro, cordoada do mesmo e vestida de azul e duas rodas de azenha, de vermelho, dispostas em roquete; em ponta, quatro burelas ondadas de azul e prata. Coroa mural de prata de tr&ecirc;s torres. Listel branco, com a legenda a negro: \"P&Oacute;VOA DE RIO DE MOINHOS\".", "source": "D.R.III S&eacute;rie n&deg; 131, de 11/07/05" }},
		{ "idf": "retaxo", "name": "Retaxo", "blogs": [ ], "heraldica": { "text": "Escudo de prata, fiandeira de azul real&ccedil;ada de negro, acompanhada em orla de dois ramos de oliveira de verde, frutados de negro, com os p&eacute;s passados em aspa e atados de vermelho. Coroa mural de prata de tr&ecirc;s torres. Listel branco, com a legenda a negro: \"RETAXO\".", "source": "D.R.III S&eacute;rie n&deg; 174, de 30/07/02" }},
		{ "idf": "salgueiro_do_campo", "name": "Salgueiro do Campo", "blogs": [ ], "heraldica": { "text": "", "source": "" }},
		{ "idf": "sao_vicente_da_beira", "name": "S&atilde;o Vicente da Beira", "blogs": [ "http://dosenxidros.blogspot.fr" ], "heraldica": { "text": "Escudo de prata, castelo de negro lavrado de ouro, aberto e iluminado do campo, tendo na porta, em grande arco abatido, cavaleiro envergando armadura completa com elmo e sua montada, tudo de negro, real&ccedil;ado de prata; acantonados em chefe, estrela de seis pontas de azul e minguante de vermelho; em ponta, barco de negro real&ccedil;ado de ouro, com dois corvos de negro, o da dextra volvido, um &agrave; proa e outro na popa. Coroa mural de prata de quatro torres. Listel branco, com a legenda a negro: «S. VICENTE da BEIRA».", "source": "D.R.III S&eacute;rie n&deg; 125, de 28/05/04" }},
		{ "idf": "santa_maria", "name": "Santa Maria", "blogs": [ ], "heraldica": { "text": "", "source": "" }},
		{ "idf": "santo_andre_das_tojeiras", "name": "Santo Andr&eacute; das Tojeiras", "blogs": [ ], "heraldica": { "text": "Escudo de ouro, aspa diminuta de vermelho, acompanhada nos flancos de um ramo de pinheiro de verde, com pinhas de vermelho e um ramo de oliveira de verde, frutado de negro e, em chefe e em ponta, de uma abelha de negro, real&ccedil;ada de prata. Coroa mural de prata de tr&ecirc;s torres. Listel branco, com a legenda a negro: \"SANTO ANDR&Eacute; das TOJEIRAS\".", "source": "D.R.III S&eacute;rie n&deg; 30, de 05/02/04" }},
		{ "idf": "sarzedas", "name": "Sarzedas", "blogs": [ ], "heraldica": { "text": "Escudo de prata, campan&aacute;rio de verde com sinos do mesmo, entre duas faixas de vermelho. Coroa mural de prata de quatro torres. Listel branco, com a legenda a negro: \"SARZEDAS\".", "source": "D.R.III S&eacute;rie n&deg; 187, de 13/08/01" }},
		{ "idf": "sobral_do_campo", "name": "Sobral do Campo", "blogs": [ "http://silvaverissimo.blogspot.fr" ], "heraldica": { "text": "Escudo de ouro, sobreiro arrancado de verde, landado e descorti&ccedil;ado de vermelho; em chefe, feixe de cinco setas de negro, atadas de vermelho. Coroa mural de prata de tr&ecirc;s torres. Listel branco, com a legenda a negro: \"SOBRAL do CAMPO\".", "source": "D.R.III S&eacute;rie n&deg;151, de 08/08/05" }},
		{ "idf": "tinalhas", "name": "Tinalhas", "blogs": [ ], "heraldica": { "text": "Escudo de verde, com duas tinas de prata real&ccedil;adas de negro, cheias, a da dextra de ramos de oliveira de prata, frutadas de negro e a da sinistra de cachos de uvas de ouro folhados de prata e uma lira de ouro real&ccedil;ada de negro, tudo bem ordenado. Coroa mural de prata de tr&ecirc;s torres. Listel branco, com a legenda a negro - \"TINALHAS\".", "source": "D.R.III S&eacute;rie n&deg; 305, de 31/12/04" }}
	]},
	{ "idc": "covilha", "name": "Covilh&atilde;", "blogs": [ "http://covilhasubsidiosparasuahistoria.blogspot.fr" ], "freguesias": [
		{ "idf": "aldeia_de_sao_francisco_de_assis", "name": "Aldeia de S&atilde;o Francisco de Assis", "blogs": [ ], "heraldica": { "text": "Escudo de prata, uma picareta e uma marreta, ambas de negro, encabadas de vermelho e passadas em aspa, tendo brocante lanterna de mineiro de negro, acesa e real&ccedil;ada de ouro; em campanha, monte de tr&ecirc;s c&ocirc;moros de verde, nascente de um p&eacute; ondado de prata e azul de quatro tiras. Coroa mural de prata de tr&ecirc;s torres. Listel branco, com a legenda a negro: \"ALDEIA DE S. FRANCISCO DE ASSIS\".", "source": "D.R.III S&eacute;rie n&deg; 279, de 03/12/01" }},
		{ "idf": "aldeia_do_souto", "name": "Aldeia do Souto", "blogs": [ ], "heraldica": { "text": "Escudo de ouro, faixa ondada de azul e prata de cinco tiras, acompanhada em chefe de dois castanheiros arrancados de verde e frutados de prata e, em campanha, de roda de azenha de vermelho. Coroa mural de prata de tr&ecirc;s torres. Listel branco, com a legenda a negro: \"ALDEIA do SOUTO\".", "source": "D.R.III S&eacute;rie n&deg; 56, de 07/03/03" }},
		{ "idf": "barco", "name": "Barco", "blogs": [ ], "heraldica": { "text": "Escudo de azul, ponte de bet&atilde;o de tr&ecirc;s arcos, de prata, gradeada do mesmo e real&ccedil;ada de negro, firmada nos flancos e movente de campanha ondada de prata e azul de cinco tiras; em chefe, barco de prata real&ccedil;ado de negro, entre duas espigas de milho de ouro, folhadas do mesmo. Coroa mural de prata de tr&ecirc;s torres. Listel branco, com a legenda a negro: \"BARCO - COVILH&Atilde;\".", "source": "D.R.III S&eacute;rie n&deg; 247, de 20/10/04" }},
		{ "idf": "boidobra", "name": "Boidobra", "blogs": [ ], "heraldica": { "text": "Escudo de prata, nora de negro real&ccedil;ada do campo, entre duas agulhas de negro, com fio de vermelho, postas em pala nos flancos; em chefe, estrela de vermelho e, em ponta, duas faixetas ondadas de azul. Coroa mural de prata de quatro torres. Listel branco, com a legenda a negro: \"BOIDOBRA\".", "source": "D.R.III S&eacute;rie n&deg; 105, de 05/05/04" }},
		{ "idf": "canhoso", "name": "Canhoso", "blogs": [ ], "heraldica": { "text": "Escudo de azul, uma estrela de ouro e duas bobinas de fia&ccedil;&atilde;o de prata, real&ccedil;adas de negro, tudo alinhado em roquete; em campanha, monte de dois c&ocirc;moros de ouro, movente da ponta, carregado de uma ponte de ferro, de negro, movente dos flancos. Coroa mural de prata de tr&ecirc;s torres. Listel branco, com a legenda a negro: \"CANHOSO\".", "source": "D.R.III S&eacute;rie n&deg; 99, de 23/05/06" }},
		{ "idf": "cantar_galo", "name": "Cantar-Galo", "blogs": [ ], "heraldica": { "text": "Escudo de prata, ponte de um arco de azul, lavrada de ouro, firmada nos flancos, encimada por galo de negro, cristado, barbelado, sancado e animado de vermelho, real&ccedil;ado de ouro. Coroa mural de prata de tr&ecirc;s torres. Listel branco, com a legenda a negro: \"CANTAR-GALO\".", "source": "D.R.III S&eacute;rie n&deg; 267, de 18/11/03" }},
		{ "idf": "casegas", "name": "Casegas", "blogs": [ ], "heraldica": { "text": "Escudo de prata, ponte romana de dois arcos de vermelho, lavrada de prata, firmada nos flancos e nascente de uma campanha de cinco burelas ondadas de azul e prata, a do meio carregada de uma truta de prata, real&ccedil;ada de vermelho; em chefe, duas espigas de milho de ouro, folhadas de verde. Coroa mural de prata de tr&ecirc;s torres. Listel branco, com a legenda a negro: \"CASEGAS\".", "source": "D.R.III S&eacute;rie n&deg; 68, de 21/03/03" }},
		{ "idf": "cortes_do_meio", "name": "Cortes do Meio", "blogs": [ ], "heraldica": { "text": "Escudo de ouro, faixa ondada de azul e prata de cinco tiras, tendo nascente rod&iacute;zio de azenha de vermelho; em campanha, cabra passante de vermelho, armada e ungulada de negro. Coroa mural de prata de tr&ecirc;s torres. Listel branco, com a legenda a negro: \"CORTES DO MEIO\".", "source": "D.R.III S&eacute;rie n&deg; 66, de 19/03/03" }},
		{ "idf": "coutada", "name": "Coutada", "blogs": [ ], "heraldica": { "text": "Escudo de ouro, dois pinheiros arrancados, de verde, alinhado em faixa; em chefe, m&oacute; de mo&iacute;nho de vermelho, furada do campo; campanha diminuta ondada de azul e prata de tr&ecirc;s pe&ccedil;as. Coroa mural de prata de tr&ecirc;s torres. Listel branco, com a legenda a negro: \"COUTADA\".", "source": "D.R.III S&eacute;rie n&deg; 55, de 05/03/04" }},
		{ "idf": "covilha_conceicao", "name": "Covilh&atilde; (Concei&ccedil;&atilde;o)", "blogs": [ ], "heraldica": { "text": "Escudo de azul, faixa de prata fretada de p&uacute;rpura, entre flor-de-lis de prata e uma estrela de ouro. Coroa mural de prata de tr&ecirc;s torres. Listel branco, com a legenda a negro: \"COVILH&Atilde; - CONCEI&Ccedil;&Atilde;O\".", "source": "D.R.III S&eacute;rie n&deg; 127, de 01/06/00" }},
		{ "idf": "covilha_santa_maria", "name": "Covilh&atilde; (Santa Maria)", "blogs": [ ], "heraldica": { "text": "Escudo de vermelho, pano de muralha de prata, lavrado de negro e firmado nos flancos; em chefe, rosa her&aacute;ldica de ouro, botonada do campo e apontada de verde, &agrave; dextra e estrela de prata &agrave; sinistra; em campanhe, roda dentada de ouro. Coroa mural de prata de tr&ecirc;s torres. Listel branco, com a legenda a negro: \"COVILH&Atilde;- SANTA MARIA\".", "source": "D.R.III S&eacute;rie n&deg; 84, de 08/04/00" }},
		{ "idf": "covilha_sao_martinho", "name": "Covilh&atilde; (S&atilde;o Martinho)", "blogs": [ ], "heraldica": { "text": "Escudo de prata, monte de dois c&ocirc;moros de verde, moventes de uma campanha ondada de prata e azul; em chefe, um cacho de uvas de p&uacute;rpura, folhado de verde. Coroa mural de prata de tr&ecirc;s torres. Listel branco, com a legenda a negro: \"COVILH&Atilde;-S. MARTINHO\".", "source": "D.R.III S&eacute;rie n&deg; 92, de 18/04/00" }},
		{ "idf": "covilha_sao_pedro", "name": "Covilh&atilde; (S&atilde;o Pedro)", "blogs": [ ], "heraldica": { "text": "Escudo de verde, uma chave de ouro e outra de prata, passadas em aspa com os palhet&otilde;es para cima, atadas de vermelho, entre uma estrela de prata, em chefe e uma espiga de milho de ouro, em ponta. Coroa mural de prata de tr&ecirc;s torres. Listel branco, com a legenda em mai&uacute;sculas a negro : \"COVILH&Atilde; – S&Atilde;O PEDRO\".", "source": "D.R.III S&eacute;rie n&deg; 47, de 25/02/03" }},
		{ "idf": "dominguizo", "name": "Dominguizo", "blogs": [ ], "heraldica": { "text": "Escudo vermelho, le&atilde;o de ouro armado, lampassado e real&ccedil;ado de negro, sustendo nas garras uma estrela de prata; em chefe, pomba do Esp&iacute;rito Santo, de prata, bicada, animada e armada de vermelho e nimbada de ouro; campanha diminuta ondada, de quatro tiras de prata e azul. Coroa mural de prata de tr&ecirc;z torres. Listel branco, com a legenda a negro: \"DOMINGUIZO\".", "source": "D.R.III S&eacute;rie n&deg; 125, de 30/05/01" }},
		{ "idf": "erada", "name": "Erada", "blogs": [ ], "heraldica": { "text": "Escudo de azul, uma chave de ouro e outra de prata, passadas em aspa; em chefe, estrela de cinco pontas de prata e, em ponta, besante do mesmo, polvilhado de achas de negro incandescentes. Coroa mural de prata de tr&ecirc;s torres. Listel branco, com a legenda a negro: \"ERADA\".", "source": "D.R.II S&eacute;rie n&deg; 116, de 20/05/98" }},
		{ "idf": "ferro", "name": "Ferro", "blogs": [ ], "heraldica": { "text": "Escudo de prata, oliveira arrancada de verde, frutada de negro, entre uma cruz da Ordem de Santiago e uma lisonja de vermelho; contra-chefe ondado de azul e prata. Coroa mural de prata de quatro torres. Listel branco com a legenda a negro, em mai&uacute;sculas : \"FERRO\".", "source": "D.R.III S&eacute;rie n&deg; 260, de 10/11/97" }},
		{ "idf": "orjais", "name": "Orjais", "blogs": [ ], "heraldica": { "text": "Escudo de prata, monte de dois c&ocirc;moros de verde, firmado nos flancos e movente de um p&eacute; ondado, de prata e azul de tr&ecirc;s tiras; em chefe, ma&ccedil;&atilde; de vermelho com seu p&eacute; folhado de verde. Coroa mural de prata de tr&ecirc;s torres. Listel branco, com a legenda em mai&uacute;sculas a negro : \"ORJAIS\".", "source": "D.R.III S&eacute;rie n&deg; 176, de 01/08/02" }},
		{ "idf": "ourondo", "name": "Ourondo", "blogs": [ ], "heraldica": { "text": "Escudo de prata, aspa ondada de azul, acompanhada nos flancos de ramo de oliveira de verde, frutado de negro e, em chefe e em ponta, de espiga de milho de vermelho, folhada de verde. Coroa mural de prata de tr&ecirc;s torres. Listel branco com a legenda a negro em mai&uacute;sculas : \"OURONDO - COVILH&Atilde;\".", "source": "D.R.III S&eacute;rie n&deg; 218, de 20/09/00" }},
		{ "idf": "paul", "name": "Paul", "blogs": [ ], "heraldica": { "text": "Escudo de azul, faixa ondada de prata, aguada de azul, acompanhada em chefe de rosa her&aacute;ldica de ouro, botoada de vermelho e apontada de verde e, em ponta, de m&oacute; de prata. Coroa mural de prata de quatro torres. Listel branco, com a legenda a negro: \"PAUL — COVILH&Atilde;\".", "source": "D.R.II S&eacute;rie n&deg; 147, de 01/08/06" }},
		{ "idf": "peraboa", "name": "Peraboa", "blogs": [ ], "heraldica": { "text": "Escudo de verde, dois cachos de uvas de ouro, folhados de prata, alinhads em faixa, entre dois ramos de oliveira de prata, frutados de ouro, com os p&eacute;s passados em aspa e atados de ouro, em chefe e fonte de prata, jorrando &aacute;gua de azul e prata, em campanha. Coroa mural de prata de tr&ecirc;s torres. Listel branco, com a legenda a negro: \"PERABOA\".", "source": "D.R.III S&eacute;rie n&deg; 119, de 23/05/03" }},
		{ "idf": "peso", "name": "Peso", "blogs": [ ], "heraldica": { "text": "Escudo de azul, peso de ouro entre dois ramos de oliveira de prata, frutados de negro, com os p&eacute;s passados em aspa e atados de ouro; campanha diminuta ondada de prata e azul de tr&ecirc;s tiras. Coroa mural de prata de tr&ecirc;s torres. Listel branco, com a legenda a negro: \"PESO – COVILH&Atilde;\".", "source": "D.R.III S&eacute;rie n&deg; 191, de 20/08/03" }},
		{ "idf": "sao_jorge_da_beira", "name": "S&atilde;o Jorge da Beira", "blogs": [ ], "heraldica": { "text": "Escudo de vermelho, lanterna de mineiro de prata; em chefe, &agrave; dextra, um hex&aacute;gono de prata e, &agrave; sinistra, uma castanha de ouro; em ponta, um lobo passante de ouro, real&ccedil;ado e lampassado de negro. Coroa mural de prata de tr&ecirc;s torres. Listel branco, com a legenda a negro: \"S. JORGE da BEIRA\".", "source": "D.R.III S&eacute;rie n&deg; 104, de 30/05/06" }},
		{ "idf": "sarzedo", "name": "Sarzedo", "blogs": [ ], "heraldica": { "text": "Escudo de verde, torre de campan&aacute;rio de prata, lavrada de negro e aberta do campo, com dois sinos de ouro; em chefe, dois ramos de castanheiro de ouro, frutados de vermelho; campanha diminuta ondada de prata e azul de tr&ecirc;s tiras. Coroa mural de prata de tr&ecirc;s torres. Listel branco, com a legenda a negro: \"SARZEDO - COVILH&Atilde;\".", "source": "D.R.III S&eacute;rie n&deg; 240, de 16/10/01" }},
		{ "idf": "sobral_de_sao_miguel", "name": "Sobral de S&atilde;o Miguel", "blogs": [ ], "heraldica": { "text": "Escudo de prata, sobreiro de verde descorti&ccedil;ado e landado de vermelho; em chefe, balan&ccedil;a de verde, sustida por espada al&ccedil;ada de lâmina flamejante de vermelho, entre duas m&oacute;s de mo&iacute;nho do mesmo, vazias do campo. Coroa mural de prata de tr&ecirc;s torres. Listel branco, com a legenda a negro: \"SOBRAL de S. MIGUEL\".", "source": "D.R.III S&eacute;rie n&deg; 2, de 04/01/05" }},
		{ "idf": "teixoso", "name": "Teixoso", "blogs": [ ], "heraldica": { "text": "De prata, com um teixo de verde frutado de ouro e arrancado de negro. Em chefe, estrela de cinco pontas de vermelho, Coroa mural de quatro torres para representar a categoria de vila. Bandeira esquartelada de verde e de negro, por serem estes os principais esmaltes da pe&ccedil;a principal. Por baixo das armas uma fita branca com os dizeres \"Vila do Teixoso\". Cord&otilde;es e borlas de verde e de negro.", "source": "Di&aacute;rio do Governo I S&eacute;rie n&deg; 160, de 18/07/1933" }},
		{ "idf": "tortosendo", "name": "Tortosendo", "blogs": [ ], "heraldica": { "text": "", "source": "" }},
		{ "idf": "unhais_da_serra", "name": "Unhais da Serra", "blogs": [ ], "heraldica": { "text": "Escudo de azul, monte de prata movente de campanha diminuta ondada de azul e prata de tr&ecirc;s tiras; em chefe, estrela de ouro, entre duas fontes de prata jorrando &aacute;gua do mesmo. Coroa mural de prata de quatro torres. Listel branco com a legenda a negro: \"UNHAIS DA SERRA\".", "source": "D.R.III S&eacute;rie n&deg; 301, de 31/12/01" }},
		{ "idf": "vale_formoso", "name": "Vale Formoso", "blogs": [ ], "heraldica": { "text": "Escudo de ouro, um vale de verde, firmado nos flancos e movente de um p&eacute; ondado de prata e azul de tr&ecirc;s tiras e encimado por ovelha de negro real&ccedil;ada de prata; em chefe, estrela de azul. Coroa mural de prata de tr&ecirc;s torres. Listel branco, com a legenda a negro: \"Vale Formoso — Covilh&atilde;\".", "source": "D.R.II S&eacute;rie n&deg; 154, de 11/08/2011" }},
		{ "idf": "vales_do_rio", "name": "Vales do Rio", "blogs": [ ], "heraldica": { "text": "Escudo de ouro, balan&ccedil;a romana de negro a encimar um monte de dois c&ocirc;moros de verde, movente de contra-chefe ondado de prata e azul; em chefe, cruz de vermelho, ma&ccedil;anetada de doze bolotas de ouro com casculhos de verde. Coroa mural de prata de tr&ecirc;s torres. Listel branco, com a legenda a negro: \"VALES do RIO\".", "source": "D.R.II S&eacute;rie n&deg; 116, de 20/05/98" }},
		{ "idf": "verdelhos", "name": "Verdelhos", "blogs": [ ], "heraldica": { "text": "Escudo de ouro, dois pinheiros arrancados de verde, alinhados em faixa; em chefe, estrela de seis pontas de azul; campanha ondada de azul e prata de tr&ecirc;s pe&ccedil;as. Coroa mural de prata de tr&ecirc;s torres. Listel branco, com a legenda a negro: \"VERDELHOS\".", "source": "D.R.III S&eacute;rie n&deg; 279, de 27/11/04" }},
		{ "idf": "vila_do_carvalho", "name": "Vila do Carvalho", "blogs": [ ], "heraldica": { "text": "Escudo de prata, carvalho de verde, landado de ouro, entre dois carneiros passantes, de azul, o da dextra volvido; em chefe, uma estrela e, em ponta, tira ondada, tudo de azul. Coroa mural de prata de quatro torres. Listel branco, com a legenda a negro: \"VILA do CARVALHO\".", "source": "Parecer da Comiss&atilde;o de Her&aacute;ldica da Assoc. Arque&oacute;logos Portugueses de 23/02/2010" }}
	]},
	{ "idc": "fundao", "name": "Fund&atilde;o", "blogs": [ "" ], "freguesias": [
		{ "idf": "alcaide", "name": "Alcaide", "blogs": [ ], "heraldica": { "text": "Escudo de prata, cerejeira arrancada de verde e frutada de vermelho, entre dois alfanges de vermelho real&ccedil;ados de ouro, com punhos de negro e os gumes voltados para os flancos. Coroa mural de prata de tr&ecirc;s torres. Listel branco, com a legenda a negro: \"ALCAIDE\".", "source": "D.R.III S&eacute;rie n&deg; 255, de 05/11/02" }},
		{ "idf": "alcaria", "name": "Alcaria", "blogs": [ ], "heraldica": { "text": "Escudo de ouro, dois c&ocirc;moros de verde moventes de um contra-chefe ondado de prata e azul de tr&ecirc;s tiras; em chefe, l&aacute;baro de S&atilde;o Jo&atilde;o Baptista, de prata, com cruz de vermelho e debruado do mesmo, entre duas telhas de vermelho, tudo posto em pala. Coroa mural de prata de tr&ecirc;s torres. Listel branco, com a legenda a negro: \"ALCARIA - FUND&Atilde;O\".", "source": "D.R.III S&eacute;rie n&deg; 198, de 28/08/00" }},
		{ "idf": "alcongosta", "name": "Alcongosta", "blogs": [ ], "heraldica": { "text": "Escudo de prata, castanheiro arrancado de verde, com ouri&ccedil;os de ouro, abertos de vermelho, entre dois cestos de negro, real&ccedil;ados de prata, contendo p&eacute;s de cereja de vermelho, folhados de verde, em chefe e campanha diminuta ondada de tr&ecirc;s tiras de azul e prata. Coroa mural de prata de tr&ecirc;s torres. Listel branco, com a legenda a negro: \"ALCONGOSTA\".", "source": "D.R.III S&eacute;rie n&deg; 177, de 02/08/02" }},
		{ "idf": "aldeia_de_joanes", "name": "Aldeia de Joanes", "blogs": [ ], "heraldica": { "text": "Escudo de prata, arco ameiado, contendo fonte de mergulho, de negro, lavrada do campo, entre cruz da Ordem de Cristo, em chefe e dois ramos de oliveira de verde, frutados de negro, com os p&eacute;s passados em aspa, em ponta. Coroa mural de prata de tr&ecirc;s torres. Listel branco, com a legenda a negro: \"ALDEIA de JOANES\".", "source": "D.R.III S&eacute;rie n&deg; 165, de 19/07/02" }},
		{ "idf": "aldeia_nova_do_cabo", "name": "Aldeia Nova do Cabo", "blogs": [ ], "heraldica": { "text": "Escudo de prata, Cruz de Calv&aacute;rio de azul; em campanha, uma lira de p&uacute;rpura entre dois ramos de oliveira de verde, frutados de negro e passados em aspa no p&eacute;. Coroa mural de prata de tr&ecirc;s torres. Listel branco, com a legenda a negro: \"ALDEIA NOVA DO CABO - FUND&Atilde;O\".", "source": "D.R.III S&eacute;rie n&deg; 288, de 15/12/97" }},
		{ "idf": "alpedrinha", "name": "Alpedrinha", "blogs": [ ], "heraldica": { "text": "Escudo de azul, dois ramos de oliveira de ouro, frutados de prata, postos em pala e alinhados em faixa; em chefe, roda de navalhas de Santa Catarina e, em campanha, fonte de prata, jorrando &aacute;gua do mesmo e real&ccedil;ada de negro. Coroa mural de prata de quatro torres. Listel branco, com a legenda a negro: \"ALPEDRINHA\".", "source": "D.R.III S&eacute;rie n&deg; 96, de 18/05/05" }},
		{ "idf": "atalaia_do_campo", "name": "Atalaia do Campo", "blogs": [ ], "heraldica": { "text": "Escudo de vermelho, um feixe de tr&ecirc;s espigas de trigo de ouro; em chefe, Agnus Dei de prata, nimbado de ouro, sustendo na pata direita uma haste cruc&iacute;fera de ouro, com l&aacute;baro de prata carregado de uma cruz firmada de vermelho. Coroa mural de prata de quatro torres. Listel branco, com a legenda a negro: \"ATALAIA do CAMPO\".", "source": "D.R.III S&eacute;rie n&deg; 174, de 30/07/02" }},
		{ "idf": "barroca", "name": "Barroca", "blogs": [ ], "heraldica": { "text": "Escudo de prata, banda diminuta ondada de azul e prata de cinco tiras, acompanhada por ramo de pinheiro de verde, posto em pala e ramo de milho de verde, com espiga de ouro, posto em pala. Coroa mural de prata de tr&ecirc;s torres. Listel branco, com a legenda a negro: \"BARROCA\".", "source": "D.R.III S&eacute;rie n&deg; 138, de 18/06/02" }},
		{ "idf": "bogas_de_baixo", "name": "Bogas de Baixo", "blogs": [ "http://bogasdebaixo.blogspot.fr" ], "heraldica": { "text": "Escudo de prata, um ramo de oliveira de verde frutado de negro, enfeixado com duas espigas de milho de ouro, folhadas de verde, tudo atado de vermelho, acompanhado em chefe por duas abelhas de vermelho e, em campanha, por tr&ecirc;s faixetas ondeadas de azul, prata e azul, a de prata carregada de tr&ecirc;s bogas de p&uacute;rpura. Coroa mural de prata de tr&ecirc;s torres. Listel branco, com a legenda a negro: \"BOGAS DE BAIXO\".", "source": "D.R.II S&eacute;rie n&deg; 24, de 29/01/97" }},
		{ "idf": "bogas_de_cima", "name": "Bogas de Cima", "blogs": [ ], "heraldica": { "text": "Escudo de prata, banda ondada de azul, carregada de tr&ecirc;s bogas de prata, real&ccedil;adas de negro, postas no sentido da banda, acompanhada de ramo de linho de verde, florido de tr&ecirc;s flores de azul, real&ccedil;adas de ouro e de um pinheiro arrancado, de verde, frutado de ouro. Coroa mural de prata de tr&ecirc;s torres. Listel branco, com a legenda a negro: \"BOGAS de CIMA\".", "source": "D.R.III S&eacute;rie n&deg; 69, de 22/03/04" }},
		{ "idf": "capinha", "name": "Capinha", "blogs": [ ], "heraldica": { "text": "Escudo de prata, cabra passante de negro, real&ccedil;ada do campo, ungulada e animada de vermelho; em chefe, duas espigas de milho de vermelho, folhadas de verde e postas em pala; em campanha, ponte de tr&ecirc;s arcos plenos de negro, lavrada do campo, firmada nos flancos e movente de ponta ondada de azul e prata de tr&ecirc;s tiras. Coroa mural de prata de tr&ecirc;s torres. Listel branco, com a legenda a negro: \"CAPINHA\".", "source": "D.R.III S&eacute;rie n&deg; 76, de 19/04/05" }},
		{ "idf": "castelo_novo", "name": "Castelo Novo", "blogs": [ ], "heraldica": { "text": "Escudo de azul, castelo de ouro lavrado de negro, aberto e iluminado de vermelho, encimando fonte de prata jorrando &aacute;gua de prata e azul. Coroa mural de prata de quatro torres. Listel branco, com a legenda a negro: \"CASTELO NOVO\".", "source": "D.R.III S&eacute;rie n&deg; 267, de 19/11/02" }},
		{ "idf": "castelejo", "name": "Castelejo", "blogs": [ ], "heraldica": { "text": "Escudo de prata, dois ramos de oliveira de verde, frutados de negro, postos em pala e alinhados em faixa, entre uma flor de Santa Luzia de verde, florida de vermelho e botoada de ouro, em chefe e uma lira de azul em ponta. Coroa mural de prata de tr&ecirc;s torres. Listel branco, com a legenda a negro: \"CASTELEJO\".", "source": "D.R.III S&eacute;rie n&deg; 129, de 05/06/02" }},
		{ "idf": "donas", "name": "Donas", "blogs": [ ], "heraldica": { "text": "Escudo de ouro, torre quadrangular de negro, lavrada, aberta e iluminada do campo, entre dois ramos de oliveira de verde, frutados de negro, postos em pala; movente da ponta, monte de tr&ecirc;s c&ocirc;moros de verde. Coroa mural de prata de tr&ecirc;s torres. Listel branco, com a legenda a negro: \"DONAS\".", "source": "D.R.III S&eacute;rie n&deg; 171, de 22/07/04" }},
		{ "idf": "enxames", "name": "Enxames", "blogs": [ ], "heraldica": { "text": "Escudo de prata, p&eacute; de rosmaninho arrancado, de verde e florido de p&uacute;rpura; em chefe, um enxame de sete abelhas de negro, real&ccedil;adas de ouro, postas 3 e 4. Coroa mural de prata de tr&ecirc;s torres. Listel branco, com a legenda a negro: \"ENXAMES - FUND&Atilde;O\".", "source": "D.R.III S&eacute;rie n&deg; 207, de 02/09/04" }},
		{ "idf": "escarigo", "name": "Escarigo", "blogs": [ ], "heraldica": { "text": "Escudo de vermelho, duas almotolias de prata, real&ccedil;adas de negro, a da dextra volvida; em chefe, cruz da Ordem de Malta; em campanha, p&eacute; de batateira de prata, com tub&eacute;rculos de ouro. Coroa mural de prata de quatro torres. Listel branco, com a legenda a negro: \"ESCARIGO\".", "source": "D.R.III S&eacute;rie n&deg; 8, de 12/01/05" }},
		{ "idf": "fatela", "name": "Fatela", "blogs": [ ], "heraldica": { "text": "Escudo de prata, campan&aacute;rio de negro, lavrado e aberto do campo, com dois sinos de azul; em campanha, vale de verde, movente de um p&eacute; ondado de prata e azul de tr&ecirc;s tiras e carregado de um crescente de prata. Coroa mural de prata de tr&ecirc;s torres. Listel branco, com a legenda a negro: \"FATELA\".", "source": "D.R.III S&eacute;rie n&deg; 84, de 02/05/05" }},
		{ "idf": "freixial_dos_potes", "name": "Freixial dos Potes", "blogs": [ ], "heraldica": { "text": "", "source": "" }},
		{ "idf": "fundao", "name": "Fund&atilde;o", "blogs": [ ], "heraldica": { "text": "Escudo de prata, monte de tr&ecirc;s c&ocirc;moros de verde, movente da campanha diminuta ondada de prata e azul de tr&ecirc;s pe&ccedil;as; em chefe, capa de vermelho, semi-cortada, entre duas rocas com fusos de negro e com ma&ccedil;arocas e estrigas de azul. Coroa mural de prata de tr&ecirc;s torres. Listel branco, com a legenda a negro: \"FREGUESIA de FUND&Atilde;O\".", "source": "D.R.III S&eacute;rie n&deg; 115, de 17/05/04" }},
		{ "idf": "janeiro_de_cima", "name": "Janeiro de Cima", "blogs": [ ], "heraldica": { "text": "Escudo de azul, barca serrana de prata, real&ccedil;ada de negro, vogando sobre campanha de quatro tiras ondadas de prata e azul; em chefe, duas rocas de fiar de ouro, passadas em aspa. Coroa mural de prata de tr&ecirc;s torres. Listel branco, com a legenda a negro: \"JANEIRO de CIMA\".", "source": "D.R.III S&eacute;rie n&deg; 98, de 22/05/06" }},
		{ "idf": "lavacolhos", "name": "Lavacolhos", "blogs": [ ], "heraldica": { "text": "Escudo de ouro, bombo de verde com pele de prata, real&ccedil;ado de negro e cordoado de ouro, tendo brocante maceta de negro, encabada de vermelho e posta em banda; em chefe, dois ramos de oliveira de verde, frutados de negro e postos em pala; em campanha, monte de tr&ecirc;s c&ocirc;moros de verde, firmado nos flancos e movente de um p&eacute; ondado de prata e azul de tr&ecirc;s tiras. Coroa mural de prata de tr&ecirc;s torres. Listel branco, com a legenda a negro: \"LAVACOLHOS\".", "source": "D.R.III S&eacute;rie n&deg; 141, de 21/06/02" }},
		{ "idf": "mata_da_rainha", "name": "Mata da Rainha", "blogs": [ ], "heraldica": { "text": "Escudo de prata, duas matas de verde em faixa; em chefe, coroa aberta de ouro, perfilada de vermelho e, em ponta, castelo de p&uacute;rpura, lavrado de negro, aberto e iluminado de ouro. Coroa mural de prata de tr&ecirc;s torres. Listel branco, com a legenda a negro, em mai&uacute;sculas: \"MATA da RA&Iacute;NHA\".", "source": "D.R.II S&eacute;rie n&deg; 47, de 25/02/97" }},
		{ "idf": "orca", "name": "Orca", "blogs": [ ], "heraldica": { "text": "Escudo de verde, tr&ecirc;s cogumelos de ouro com base de prata, alinhados em faixa, entre orca arqueol&oacute;gica de prata, real&ccedil;ada de negro, em chefe e um feixe de tr&ecirc;s ramos de oliveira de ouro, frutados de negro, atado de prata, em campanha. Coroa mural de prata de tr&ecirc;s torres. Listel branco, com a legenda a negro: \"ORCA - FUND&Atilde;O\".", "source": "D.R.III S&eacute;rie n&deg; 246, de 24/10/02" }},
		{ "idf": "pero_viseu", "name": "P&ecirc;ro Viseu", "blogs": [ ], "heraldica": { "text": "Escudo de ouro, uma pereira, arrancada, de verde, frutada de prata, entre duas liras de negro; em campanha, ponte de tr&ecirc;s arcos de negro, lavrada do campo, firmada no flancos e movente de um p&eacute; ondado de azul e prata de duas pe&ccedil;as. Coroa mural de prata de tr&ecirc;s torres. Listel branco, com a legenda a negro: \"P&Ecirc;RO VISEU\".", "source": "D.R.III S&eacute;rie n&deg; 249, de 22/10/04" }},
		{ "idf": "povoa_de_atalaia", "name": "P&oacute;voa de Atalaia", "blogs": [ ], "heraldica": { "text": "Escudo de prata, livro de ouro aberto, encadernado de azul, entre dois p&eacute;s de milho arrancados e folhados de verde, frutados de ouro e passados em aspa; em chefe, dois gafanhotos de verde, real&ccedil;ados de ouro, o da dextra volvido. Coroa mural de prata de tr&ecirc;s torres. Listel branco, com a legenda a negro: \"P&Oacute;VOA de ATALAIA\".", "source": "D.R.III S&eacute;rie n&deg; 255, de 05/11/02" }},
		{ "idf": "salgueiro", "name": "Salgueiro", "blogs": [ ], "heraldica": { "text": "Escudo de prata, uma palma posta em pala e dois ramos de salgueiro, todos de verde e atados no p&eacute;, com tor&ccedil;al de vermelho; brocante sobre a palma, uma faca de ouro, real&ccedil;ada de vermelho e posta em faixa; contra-chefe ondado de azul e prata de cinco tiras. Coroa mural de prata de tr&ecirc;s torres. Listel branco, com a legenda a negro: \"SALGUEIRO. FUND&Atilde;O\".", "source": "D.R.III S&eacute;rie n&deg; 166, de 20/07/00" }},
		{ "idf": "silvares", "name": "Silvares", "blogs": [ ], "heraldica": { "text": "Escudo de negro, bombo de vermelho e prata, cordoado do primeiro, rodeado por ramo de silva de sua cor, florido de ouro; ponta ondeada de prata e azul, de tr&ecirc;s tiras. Coroa mural de prata de quatro torres. Listel branco com a legenda a negro: \"SILVARES - FUND&atilde;O\".", "source": "D.R.II S&eacute;rie n&deg; 35, de 11/02/97" }},
		{ "idf": "soalheira", "name": "Soalheira", "blogs": [ "http://soalheira.blogspot.fr" ], "heraldica": { "text": "Escudo de azul, ovelha passante de prata, real&ccedil;ada e ungulada de negro, entre um sol de ouro, em chefe e um ramo de oliveira de ouro, frutado de negro, em ponta. Coroa mural de prata de quatro torres. Listel branco, com a legenda a negro: \"SOALHEIRA\".", "source": "D.R.III S&eacute;rie n&deg; 204, de 04/09/02" }},
		{ "idf": "souto_da_casa", "name": "Souto da Casa", "blogs": [ ], "heraldica": { "text": "Escudo de prata, roda de azenha de vermelho, entre dois castanheiros de verde, com ouri&ccedil;os de ouro; em chefe, duas chaves de vermelho, passadas em aspa com os palhet&otilde;es para o chefe e, em ponta, tr&ecirc;s burelas ondeadas de azul e prata. Coroa mural de prata de tr&ecirc;s torres. Listel branco, com a legenda a negro, em mai&uacute;sculas: \"SOUTO DA CASA\".", "source": "D.R.III S&eacute;rie n&deg; 253, de 31/10/96" }},
		{ "idf": "telhado", "name": "Telhado", "blogs": [ ], "heraldica": { "text": "Escudo de prata, cinco telhas de vermelho postas em pala e alinhadas em asna; em campanha, uma espiga de trigo de verde e um ramo de oliveira do mesmo, frutado de negro, com os p&eacute;s passados em aspa e atados de vermelho. Coroa mural de prata de tr&ecirc;s torres. Listel branco, com a legenda a negro: \"TELHADO - FUND&Atilde;O\".", "source": "D.R.III S&eacute;rie n&deg; 13, de 18/01/06" }},
		{ "idf": "vale_de_prazeres", "name": "Vale de Prazeres", "blogs": [ ], "heraldica": { "text": "Escudo de ouro, torre sineira de negro, lavrada e aberta de prata, com sino de vermelho, entre um ramo de oliveira de verde, frutado de negro e posto em pala e um cacho de uvas de p&uacute;rpura, folhado de verde, tudo alinhado em faixa; em campanha, um vale de verde, movente da ponta. Coroa mural de prata de tr&ecirc;s torres. Listel branco, com a legenda a negro: \"VALE de PRAZERES\".", "source": "D.R.III S&eacute;rie n&deg; 176, de 01/08/03" }},
		{ "idf": "valverde", "name": "Valverde", "blogs": [ ], "heraldica": { "text": "Escudo de prata, uma oliveira arrancada, de verde e frutada de negro; acantonadas em chefe, duas ma&ccedil;&atilde;s de vermelho folhadas de verde; em campanha, um vale de verde movente dos flancos e de p&eacute; de tr&ecirc;s tiras ondadas de prata e azul. Coroa mural de prata de tr&ecirc;s torres. Listel branco, com a legenda a negro: \"Valverde — Fund&atilde;o\".", "source": "D.R.II S&eacute;rie n&deg; 194, de 07/10/08" }},
		{ "idf": "zebras", "name": "Zebras", "blogs": [ ], "heraldica": { "text": "", "source": "" }}
	]},
	{ "idc": "idanha_a_nova", "name": "Idanha-a-Nova", "blogs": [ "" ], "freguesias": [
		{ "idf": "alcafozes", "name": "Alcafozes", "blogs": [ ], "heraldica": { "text": "Escudo de prata, oliveira arrancada de verde, frutada de negro; em chefe, cruz da Ordem do Templo, &agrave; dextra e dois alfanges de azul passados em aspa, &agrave; sinistra. Coroa mural de prata de tr&ecirc;s torres. Listel branco, com a legenda a negro: \"ALCAFOZES\".", "source": "Segundo o parecer do Instituto Portugu&ecirc;s de Her&aacute;ldica (I.P.H.) Associa&ccedil;&atilde;o dos Arque&oacute;logos Portugueses - Comiss&atilde;o de Her&aacute;ldica, de 22/07/2002" }},
		{ "idf": "aldeia_de_santa_margarida", "name": "Aldeia de Santa Margarida", "blogs": [ "http://aldeiadesantamargarida.blogspot.fr", "http://aldeiadesantamargarida.blogs.sapo.pt" ], "heraldica": { "text": "Escudo de prata, torre sineira de dois arcos de negro, lavrada do campo, com sinos de vermelho, badalados de azul; a torre sineira acompanhada nos flancos de dois ramos de oliveira de verde, frutados de negro. Coroa mural de prata de tr&ecirc;s torres. Listel branco, com a legenda a negro: \"ALDEIA de SANTA MARGARIDA\".", "source": "D.R.II S&eacute;rie n&deg; 126, de 03/07/06" }},
		{ "idf": "idanha_a_nova", "name": "Idanha-a-Nova", "blogs": [ ], "heraldica": { "text": "Escudo de vermelho, adufe de ouro com la&ccedil;os de azul, entre dois ramos de murta de ouro, com flores de prata, real&ccedil;adas de p&uacute;rpura e botoadas de ouro, com os p&eacute;s passados em aspa; em chefe, flor-de-lis de prata. Coroa mural de prata de tr&ecirc;s torres. Listel branco, com a legenda a negro: \"FREGUESIA de IDANHA-a-NOVA\".", "source": "D.R.III S&eacute;rie n&deg; 249, de 26/10/01" }},
		{ "idf": "idanha_a_velha", "name": "Idanha-a-Velha", "blogs": [ ], "heraldica": { "text": "Escudo de prata, pano de muralha ameiado, de vermelho, lavrado e aberto de ouro, em faixa e firmado nos flancos; em chefe, cruz da Ordem do Templo e cruz da Ordem de Cristo e, em campanha, figueira arrancada, de verde, frutada de p&uacute;rpura. Coroa mural de prata de quatro torres. Listel branco, com a legenda a negro: \"IDANHA-a-VELHA\".", "source": "D.R.III S&eacute;rie n&deg; 35, de 11/02/04" }},
		{ "idf": "ladoeiro", "name": "Ladoeiro", "blogs": [ ], "heraldica": { "text": "Escudo de azul, um chafariz de ouro, lavrado de negro; chefe de prata, carregado com uma cruz da Ordem de Cristo, entre duas torres de vermelho, lavradas e iluminadas de prata; campanha de burelas ondeadas de prata e azul. Coroa mural de prata de tr&ecirc;s torres. Listel branco, com a legenda a negro: \"LADOEIRO\".", "source": "D.R.III S&eacute;rie n&deg; 61, de 12/03/96" }},
		{ "idf": "medelim", "name": "Medelim", "blogs": [ ], "heraldica": { "text": "Escudo de ouro, com monte de verde movente da ponta, rematado por calv&aacute;rio de p&uacute;rpura, entre dois gravatos de vermelho, com as ansas para dentro; campanha diminuta de tr&ecirc;s burelas ondadas de prata, azul e prata. Coroa mural de prata de quatro torres. Listel branco, com a legenda a negro: \"MEDELIM\".", "source": "D.R.II S&eacute;rie n&deg; 127, de 04/07/07" }},
		{ "idf": "monfortinho", "name": "Monfortinho", "blogs": [ ], "heraldica": { "text": "Escudo de ouro, fonte de azul repuxando &aacute;gua de sua cor, entre duas cabe&ccedil;as de javali afrontadas, de negro e armadas de prata; em chefe, flor-de-lis de verde; campanha ondeada de azul e prata. Coroa mural de prata de tr&ecirc;s torres. Listel branco, com a legenda a negro: \"MONFORTINHO\".", "source": "D.R.II S&eacute;rie n&deg; 12, de 15/01/97" }},
		{ "idf": "monsanto", "name": "Monsanto", "blogs": [ ], "heraldica": { "text": "Escudo de verde, torre sineira de prata com seu sino de ouro, lavrada, aberta e iluminada de negro, coberta de ouro e grimpada de prata. Coroa mural de prata de quatro torres. Listel branco, com a legenda a negro: \"MONSANTO - IDANHA-a-NOVA\".", "source": "D.R.III S&eacute;rie n&deg; 242, de 18/10/01" }},
		{ "idf": "oledo", "name": "Oledo", "blogs": [ ], "heraldica": { "text": "Escudo de verde, perdiz de sua cor entre dois ramos de oliveira de ouro, frutados de negro; em chefe, tr&ecirc;s besantes de prata. Coroa mural de prata de tr&ecirc;s torres. Listel branco, com a legenda a negro: \"OLEDO\".", "source": "D.R.III S&eacute;rie n&deg; 253, de 31/10/01" }},
		{ "idf": "penha_garcia", "name": "Penha Gar&ccedil;ia", "blogs": [ ], "heraldica": { "text": "Escudo de prata, escudete de verde com castelo de prata encimado por flor-de-lis de ouro, rematado por coronel de conde e acompanhado &agrave; dextra por uma lan&ccedil;a de negro, levando hasteada bandeira quadrada de prata, franjada de vermelho e carregada com a cruz da Ordem de Cristo. Coroa mural de prata de quatro torres. Listel branco, com a legenda a negro: \"PENHA GARCIA\".", "source": "D.R.III S&eacute;rie n&deg; 124, de 29/05/02" }},
		{ "idf": "proenca_a_velha", "name": "Proen&ccedil;a-a-Velha", "blogs": [ ], "heraldica": { "text": "Escudo de ouro, duas ovelhas de negro, real&ccedil;adas de prata, postas em cortesia; em chefe, cruz da Ordem de Cristo e, em ponta, roda de lagar de vermelho. Coroa mural de prata de quatro torres. Listel branco, com a legenda a negro: \"PROEN&Ccedil;A-a-VELHA\".", "source": "D.R.III S&eacute;rie n&deg; 183, de 08/08/01" }},
		{ "idf": "rosmaninhal", "name": "Rosmaninhal", "blogs": [ ], "heraldica": { "text": "Escudo de prata, corti&ccedil;o de sua cor; em chefe, cor&ccedil;a deitada, de vermelho; em campanha, dois ramos de rosmaninho de verde, floridos de p&uacute;rpura, passados em aspa e atados de vermelho. Coroa mural de prata de quatro torres. Listel branco, com a legenda a negro, em mai&uacute;sculas: \"ROSMANINHAL\".", "source": "D.R.III S&eacute;rie n&deg; 250, de 28/10/96" }},
		{ "idf": "salvaterra_do_extremo", "name": "Salvaterra do Extremo", "blogs": [ ], "heraldica": { "text": "Escudo de prata, pano de muralha de negro, lavrado de prata e firmado nos flancos, acompanhado em chefe de uma oliveira arrancada de verde e frutada de negro e, em campanha, de uma lanterna de mineiro de vermelho, acesa e real&ccedil;ada de ouro. Coroa mural de prata de quatro torres. Listel branco, com a legenda a negro: \"SALVATERRA do EXTREMO\".", "source": "D.R.III S&eacute;rie n&deg; 165, de 19/07/02 e D.R.II S&eacute;rie n&deg; 149, de 03/08/06" }},
		{ "idf": "sao_miguel", "name": "S&atilde;o Miguel (Monsanto)", "blogs": [ ], "heraldica": { "text": "", "source": "" }},
		{ "idf": "sao_miguel_de_acha", "name": "S&atilde;o Miguel de Acha", "blogs": [ ], "heraldica": { "text": "Escudo de Prata, perlo ondulado de azul e prata de tr&ecirc;s tiras ondadas, acompanhadas em chefe de balan&ccedil;a de p&uacute;rpura sustida por espada al&ccedil;ada de lâmina flamejante do mesmo, real&ccedil;ada de ouro e, nos flancos, por Cruz da Ordem de Cristo e crescente de vermelho. Coroa Mural nos termos da lei. Listel Branco, com a legenda a negro: \"S. MIGUEL DE ACHA\".", "source": "D.R. II S&eacute;rie n&deg; 161, de 21/08/08" }},
		{ "idf": "segura", "name": "Segura", "blogs": [ ], "heraldica": { "text": "", "source": "" }},
		{ "idf": "touloes", "name": "Toul&otilde;es", "blogs": [ ], "heraldica": { "text": "Escudo de prata, dois lobos passantes de negro, armados, lampassados e animados de vermelho, o da dextra voltado, alinhados em faixa; em chefe, cruz solta de vermelho, ma&ccedil;anetada de doze bolotas de ouro com os casculhos de verde; em campanha, ramo de oliveira de verde, de tr&ecirc;s folhas, frutado de negro. Coroa mural de prata de tr&ecirc;s torres. Listel branco, com a legenda a negro: \"TOUL&Otilde;ES\".", "source": "D.R.III S&eacute;rie n&deg; 49, de 27/02/02" }},
		{ "idf": "zebreira", "name": "Zebreira", "blogs": [ ], "heraldica": { "text": "Escudo de negro, pelourinho com sua base de prata, entre uma espiga de trigo de ouro, &agrave; dextra e um ramo de oliveira de prata, frutado de ouro, &agrave; sinistra. Coroa mural de prata de quatro torres. Listel branco, com a legenda a negro: \"ZEBREIRA\".", "source": "D.R.III S&eacute;rie n&deg; 183, de 08/08/01" }}
	]},
	{ "idc": "macao", "name": "Ma&ccedil;&atilde;o", "blogs": [ ], "freguesias": [
		{ "idf": "aboboreira", "name": "Aboboreira", "blogs": [ ], "heraldica": { "text": "Escudo de ouro, roda de azenha de negro, entre dois ramos de oliveira de verde, frutados de negro, com os p&eacute;s passados em aspa, tudo encimado por tr&ecirc;s pinheiros arrancados de verde, frutados de vermelho, alinhados em faixa. Coroa mural de prata de tr&ecirc;s torres. Listel branco, com a legenda a negro: \"ABOBOREIRA\".", "source": "D.R.III S&eacute;rie nº 157, de 10/07/02" }},
		{ "idf": "amendoa", "name": "Am&ecirc;ndoa", "blogs": [ ], "heraldica": { "text": "Escudo de negro, dois ramos de amendoeira de ouro, frutados de prata, com os p&eacute;s passados em aspa, em chefe, cruz da Ordem de Cristo, perfilada de prata e, em campanha, monte de ouro, movente da ponta e rematado por pano de muralha de prata, lavrado de negro. Coroa mural de prata de tr&ecirc;s torres. Listel branco, com a legenda a negro: \"AMÊNDOA - MA&Ccedil;&Atilde;O\".", "source": "D.R.III S&eacute;rie nº 111, de 14/05/01" }},
		{ "idf": "cardigos", "name": "Cardigos", "blogs": [ ], "heraldica": { "text": "Escudo de prata, lâmpada de negro acesa de vermelho, entre dois ramos de oliveira de verde, frutados de ouro e atados em ponta de vermelho, em chefe, escudete de vermelho carregado de uma cruz da Ordem de Malta, de prata. Coroa mural de prata de quatro torres. Listel branco, com a legenda a negro: \"CARDIGOS\".", "source": "D.R.III S&eacute;rie nº 223, de 26/09/00" }},
		{ "idf": "carvoeiro", "name": "Carvoeiro", "blogs": [ ], "heraldica": { "text": "Escudo de verde, monte de carv&atilde;o de negro, incandescente de ouro e vermelho; em chefe, cruz da Ordem de Malta. Coroa mural de prata de quatro torres. Listel branco, com a legenda a negro: \"CARVOEIRO - MA&Ccedil;&Atilde;O\".", "source": "D.R.III S&eacute;rie nº 243, de 20/10/03" }},
		{ "idf": "envendos", "name": "Envendos", "blogs": [ ], "heraldica": { "text": "Escudo de vermelho, ponte de seis arcos de prata lavrada de negro, movente dos flancos e de um contra-chefe ondado de prata e azul; em chefe, cruz da Ordem de Malta entre um cacho de uvas de ouro, folhado de prata e uma abelha de ouro, alada de prata e listada de negro. Coroa mural de prata de tr&ecirc;s torres. Listel branco, com a legenda a negro: \"ENVENDOS\".", "source": "D.R.III S&eacute;rie nº 240, de 16/10/97" }},
		{ "idf": "macao", "name": "Ma&ccedil;&atilde;o", "blogs": [ ], "heraldica": { "text": "Escudo de prata, uma faixa de vermelho, endentada no bordo superior, acompanhada em chefe por ramo de pinheiro de verde, frutado de vermelho e ramo de oliveira de verde, frutado de negro e, em ponta, de um monte de verde. Coroa mural de prata de tr&ecirc;s torres. Listel branco, com a legenda a negro: \"FREGUESIA de MA&Ccedil;&Atilde;O\".", "source": "D.R.III S&eacute;rie nº 193, de 21/08/01" }},
		{ "idf": "ortiga", "name": "Ortiga", "blogs": [ ], "heraldica": { "text": "Escudo de prata, proa de barco (picareto) vogando sobre um ondeado de azul e prata em contra-chefe e acompanhado de quatro ramos de oliveira de verde, frutados de negro, passados dois a dois em aspa e atados de vermelho; em chefe, flor-de-lis de p&uacute;rpura. Coroa mural de prata de tr&ecirc;s torres. Listel branco, com a legenda a negro: \"ORTIGA\".", "source": "D.R.II S&eacute;rie nº 19, de 23/01/97" }},
		{ "idf": "penhascoso", "name": "Penhascoso", "blogs": [ ], "heraldica": { "text": "Escudo de azul, vieira de ouro real&ccedil;ada de negro e duas estrelas de David, de prata, tudo alinhado em roquete; em campanha, monte de tr&ecirc;s c&ocirc;moros de ouro, movente da ponta. Coroa mural de prata de tr&ecirc;s torres. Listel branco, com a legenda a negro: \"PENHASCOSO\".", "source": "D.R.III S&eacute;rie nº 252, de 31/10/02" }}
	]},
	{ "idc": "oleiros", "name": "Oleiros", "blogs": [ "http://olharbemoleiros.blogspot.fr" ], "freguesias": [
		{ "idf": "alvaro", "name": "&Aacute;lvaro", "blogs": [ ], "heraldica": { "text": "Escudo de ouro, folha de serra de vermelho, real&ccedil;ada de negro entre dois ramos de oliveira de verde, frutados de negro, tudo posto em pala e alinhado em faixa; em chefe e em campanha, uma faixeta ondada de azul, carregada de duas burelas ondadas de prata. Coroa mural de prata de quatro torres. Listel branco, com a legenda a negro: \"&Aacute;LVARO\".", "source": "D.R.III S&eacute;rie n&deg; 7, de 09/01/02" }},
		{ "idf": "amieira", "name": "Amieira", "blogs": [ ], "heraldica": { "text": "Escudo de prata, ramo de pinheiro e ramo de medronheiro, ambos de verde, postos em pala e frutados de vermelho e gralha de negro, real&ccedil;ada de prata. Coroa mural de prata de tr&ecirc;s torres. Listel branco, com a legenda a negro: \"AMIEIRA - OLEIROS\".", "source": "D.R.III S&eacute;rie n&deg; 150, de 02/07/03" }},
		{ "idf": "cambas", "name": "Cambas", "blogs": [ ], "heraldica": { "text": "Escudo de prata, oliveira arrancada, de verde, frutada de negro, entre duas abelhas de negro, real&ccedil;adas de ouro; campanha diminuta de tr&ecirc;s tiras ondadas de azul e prata. Coroa mural de prata de tr&ecirc;s torres. Listel branco, com a legenda a negro: \"CAMBAS\".", "source": "D.R.II S&eacute;rie n&deg; 38, de 22/02/07" }},
		{ "idf": "estreito", "name": "Estreito", "blogs": [ ], "heraldica": { "text": "Escudo de prata, cal&ccedil;ado de negro; em chefe, um escudete de vermelho, carregado de uma cruz da Ordem de Malta, de prata. Coroa mural de prata de tr&ecirc;s torres. Listel branco com a legenda a negro, em mai&uacute;sculas : \"ESTREITO - OLEIROS\".", "source": "D.R.II S&eacute;rie n&deg; 133, de 11/06/97" }},
		{ "idf": "isna", "name": "Isna", "blogs": [ ], "heraldica": { "text": "", "source": "" }},
		{ "idf": "madeira", "name": "Madeir&atilde;", "blogs": [ ], "heraldica": { "text": "Escudo de azul, medronheiro arrancado de prata, florido de ouro, em chefe rosa her&aacute;ldica de ouro e em campanha faixa ondada de prata carregada de dois peixes nadantes de vermelho, real&ccedil;ados de negro. Coroa mural de prata de tr&ecirc;s torres. Listel de prata com a legenda a negro, em mai&uacute;sculas \"MADEIR&Atilde;\".", "source": "D.R.II S&eacute;rie n&deg; 15, de 22/01/2016" }},
		{ "idf": "mosteiro", "name": "Mosteiro", "blogs": [ ], "heraldica": { "text": "Escudo de azul, ramo de pinheiro de ouro, frutado de prata, entre seis capit&eacute;is cor&iacute;ntios de ouro, alinhados em duas palas; em chefe, cruz da Ordem de Malta e, em campanha, g&eacute;mina ondada, tudo de prata. Coroa mural de prata de tr&ecirc;s torres. Listel branco, com a legenda a negro: \"MOSTEIRO - OLEIROS\".", "source": "D.R. II S&eacute;rie n&deg; 51, de 13/03/2015" }},
		{ "idf": "oleiros", "name": "Oleiros", "blogs": [ ], "heraldica": { "text": "Escudo de vermelho, dois ramos de linho de ouro, floridos do mesmo e botonados de verde, com os p&eacute;s passados em aspa, entre uma cruz da Ordem de Malta, de prata, em chefe e uma campanha ondada de prata e azul de tr&ecirc;s tiras, a do centro carregada de duas trutas de ouro. Coroa mural de prata de tr&ecirc;s torres. Listel branco, com a legenda a negro: \"FREGUESIA de OLEIROS\".", "source": "D.R.III S&eacute;rie n&deg; 172, de 26/07/01" }},
		{ "idf": "orvalho", "name": "Orvalho", "blogs": [ ], "heraldica": { "text": "", "source": "" }},
		{ "idf": "sarnadas_de_sao_simao", "name": "Sarnadas de S&atilde;o Sim&atilde;o", "blogs": [ ], "heraldica": { "text": "Escudo de prata, pinheiro arrancado e folhado de verde e medronheiro arrancado e folhado do mesmo e florido de vermelho, alinhados em faixa; em campanha, monte de verde firmado nos flancos e movente da ponta. Coroa mural de prata de tr&ecirc;s torres. Listel branco, com a legenda a negro: \"SARNADAS de S. SIM&Atilde;O\".", "source": "D.R.III S&eacute;rie n&deg; 129, de 05/06/02" }},
		{ "idf": "sobral", "name": "Sobral", "blogs": [ ], "heraldica": { "text": "Escudo de prata, campan&aacute;rio de vermelho, iluminado do campo, entre dois ramos de sobreiro de verde, landados de vermelho; campanha ondada de azul e prata, de cinco pe&ccedil;as. Coroa mural de prata de tr&ecirc;s torres. Listel branco, com a legenda a negro: \"SOBRAL - OLEIROS\".", "source": "D.R.III S&eacute;rie n&deg; 15, de 21/01/05" }},
		{ "idf": "vilar_barroco", "name": "Vilar Barroco", "blogs": [ ], "heraldica": { "text": "Escudo de ouro, faixa de tr&ecirc;s tiras ondadas de azul e prata, esta carregada de duas trutas de vermelho, acompanhada de feixe de sete setas de vermelho, atadas de verde e de um cuco de sua cor. Coroa mural de prata de tr&ecirc;s torres. Listel branco, com a legenda a negro: \"VILAR BARROCO\".", "source": "D.R.II S&eacute;rie n&deg; 85, de 03/05/07" }}
	]},
	{ "idc": "pampilhosa_da_serra", "name": "Pampilhosa da Serra", "blogs": [ "" ], "freguesias": [
		{ "idf": "cabril", "name": "Cabril", "blogs": [ ], "heraldica": { "text": "Escudo de ouro, duas espigas de milho de vermelho, folhadas de verde; em chefe, c&atilde;o de negro, malhado de prata, passante, sustendo na boca um archote de negro, aceso de vermelho; em campanha, monte de verde movente da ponta, carregado de uma cabra de prata, real&ccedil;ada de negro. Coroa mural de prata de tr&ecirc;s torres. Listel branco, com a legenda a negro: \"CABRIL - PAMPILHOSA da SERRA\".", "source": "D.R.III S&eacute;rie n&deg; 117, de 21/06/05" }},
		{ "idf": "dornelas_do_zezere", "name": "Dornelas do Z&ecirc;zere", "blogs": [ ], "heraldica": { "text": "Escudo de ouro, duas rodas de azenha de negro, com suas bilhas de vermelho, alinhadas em faixa; em chefe, estrela de azul; em campanha, ponte de um arco de negro, lavrada de prata, movente dos flancos e de um p&eacute; ondado de azul e prata de tr&ecirc;s tiras. Coroa mural de prata de tr&ecirc;s torres. Listel branco, com a legenda a negro: \"DORNELAS do Z&Ecirc;ZERE\".", "source": "" }},
		{ "idf": "fajao", "name": "Faj&atilde;o", "blogs": [ ], "heraldica": { "text": "Escudo de ouro, com dois castanheiros de verde, arrancados do mesmo e com ouri&ccedil;os de ouro; em chefe, flor-de-lis de azul; movente da ponta, monte de tr&ecirc;s c&ocirc;moros de verde. Coroa mural de prata de quatro torres. Listel branco, com a legenda a negro: \"FAJ&Atilde;O\".", "source": "D.R.III S&eacute;rie n&deg; 158, de 10/07/01" }},
		{ "idf": "janeiro_de_baixo", "name": "Janeiro de Baixo", "blogs": [ "http://janeirodebaixo.blogspot.fr", "http://blogonline-janeirodebaixo.blogspot.fr" ], "heraldica": { "text": "Escudo de prata, dois pinheiros arrancados de verde, com pinhas de vermelho, resinados de ouro, sangrando cada um para um vaso de p&uacute;rpura; em chefe, cruz da Ordem de Cristo; campanha diminuta ondada de azul e prata de tr&ecirc;s pe&ccedil;as. Coroa mural de prata de tr&ecirc;s torres. Listel branco, com a legenda a negro: \"JANEIRO de BAIXO\".", "source": "D.R.III S&eacute;rie n&deg; 12, de 15/01/04" }},
		{ "idf": "machio", "name": "Machio", "blogs": [ ], "heraldica": { "text": "Escudo de ouro, ramo de castanheiro de verde, ouri&ccedil;ado do mesmo, com castanhas de vermelho e duas m&oacute;s de azul furadas do campo, tudo alinhado em roquete; campanha, de cinco burelas ondadas, de azul e prata. Coroa mural de prata de tr&ecirc;s torres. Listel branco, com a legenda a negro: \"MACHIO\".", "source": "D.R.III S&eacute;rie n&deg; 239, de 11/10/04" }},
		{ "idf": "pampilhosa_da_serra", "name": "Pampilhosa da Serra", "blogs": [ ], "heraldica": { "text": "Escudo de ouro, quatro arruelas de negro alinhadas em faixa; em chefe, flor-de-lis de azul, entre dois ramos de pinheiro de verde, com pinhas de vermelho; campanha ondada de azul e prata de tr&ecirc;s tiras. Coroa mural de prata de tr&ecirc;s torres. Listel branco, com a legenda a negro: \"FREGUESIA de PAMPILHOSA da SERRA\".", "source": "D.R.III S&eacute;rie n&deg; 166, de 19/07/01" }},
		{ "idf": "pessegueiro", "name": "Pessegueiro", "blogs": [ ], "heraldica": { "text": "Escudo de prata, pessegueiro de verde, arrancado e folhado do mesmo e frutado de vermelho, entre duas m&oacute;s de vermelho, abertas do campo. Coroa mural de prata de tr&ecirc;s torres. Listel branco, com a legenda a negro: \"PESSEGUEIRO\".", "source": "" }},
		{ "idf": "portela_do_fojo", "name": "Portela do Fojo", "blogs": [ ], "heraldica": { "text": "Escudo de prata, um pinheiro arrancado de verde, com pinhas de ouro, acompanhado em chefe de duas abelhas de sua cor; plan&iacute;cie de alvenaria de vermelho, lavrada de prata. Coroa mural de prata de tr&ecirc;s torres. Listel branco, com a legenda a negro: \"PORTELA do FOJO\".", "source": "D.R.III S&eacute;rie n&deg; 166, de 19/07/96" }},
		{ "idf": "unhais_o_velho", "name": "Unhais-o-Velho", "blogs": [ ], "heraldica": { "text": "Escudo de prata, faixa de azul, potenteada no bordo superior e acompanhada, em chefe, de uma abelha de vermelho entre duas espigas de milho de verde; em ponta, quatro burelas ondeadas de azul. Coroa mural de prata de tr&ecirc;s torres. Listel branco, com a legenda a negro, em mai&uacute;sculas: \"UNHAIS-o-VELHO\".", "source": "D.R.II S&eacute;rie n&deg; 18, de 22/01/97" }},
		{ "idf": "vidual", "name": "Vidual", "blogs": [ ], "heraldica": { "text": "Escudo de azul, faixa de prata acompanhada em chefe de um l&iacute;rio do mesmo, folhado de ouro e, em ponta, de tr&ecirc;s burelas ondadas de prata. Coroa mural de prata de tr&ecirc;s torres. Listel branco, com a legenda a negro: \"VIDUAL\".", "source": "D.R.III S&eacute;rie n&deg; 302, de 30/12/99" }}
	]},
	{ "idc": "penamacor", "name": "Penamacor", "blogs": [ "" ], "freguesias": [
		{ "idf": "aguas", "name": "&Aacute;guas", "blogs": [ ], "heraldica": { "text": "Escudo de prata, nove fontes her&aacute;ldicas de azul e prata. Coroa mural de prata de tr&ecirc;s torres. Listel branco, com a legenda a negro: \"&Aacute;GUAS - PENAMACOR\".", "source": "D.R.II S&eacute;rie n&deg; 162, de 16/07/98" }},
		{ "idf": "aldeia_de_joao_pires", "name": "Aldeia de Jo&atilde;o Pires", "blogs": [ ], "heraldica": { "text": "Escudo de prata, uma lira de p&uacute;rpura, cordoada de ouro, entre dois ramos de oliveira de verde, frutados de negro, cruzados em aspa na ponta; em chefe, &agrave; dextra, uma cruz da Ordem do Templo e, &agrave; sinistra, uma cruz da Ordem de Cristo. Coroa mural de prata de tr&ecirc;s torres. Listel branco, com a legenda a negro, em mai&uacute;sculas: \"ALDEIA de JO&Atilde;O PIRES\".", "source": "D.R.III S&eacute;rie n&deg; 262, de 12/11/96" }},
		{ "idf": "aldeia_do_bispo", "name": "Aldeia do Bispo", "blogs": [ ], "heraldica": { "text": "Escudo de prata, ramo de oliveira de verde frutado de negro, cacho de uvas de p&uacute;rpura folhado de verde e felosa (ave) de sua cor, tudo bem ordenado. Coroa mural de prata de tr&ecirc;s torres. Listel branco, com a legenda a negro: \"ALDEIA do BISPO - PENAMACOR\".", "source": "D.R.III S&eacute;rie n&deg; 174, de 30/07/02" }},
		{ "idf": "aranhas", "name": "Aranhas", "blogs": [ ], "heraldica": { "text": "Escudo de prata, roda de fiar de azul, real&ccedil;ada do campo e cordoada de vermelho, encimando rod&iacute;zio de vermelho. Coroa mural de prata de tr&ecirc;s torres. Listel branco, com a legenda a negro: \"ARANHAS\".", "source": "D.R.III S&eacute;rie n&deg; 114, de 17/05/02" }},
		{ "idf": "bemposta", "name": "Bemposta", "blogs": [ ], "heraldica": { "text": "Escudo de prata, uma enxada e um ancinho, ambos de negro e encabados de azul e passados em aspa, entre cruz da Ordem do Templo, em chefe e uma silva arrancada de verde e frutada de p&uacute;rpura, em campanha. Coroa mural de prata de quatro torres. Listel branco, com a legenda a negro: \"BEMPOSTA - PENAMACOR\".", "source": "D.R.III S&eacute;rie n&deg; 18, de 22/01/02" }},
		{ "idf": "benquerenca", "name": "Benqueren&ccedil;a", "blogs": [ ], "heraldica": { "text": "Escudo de prata, charrua de negro real&ccedil;ada do campo, entre um ramo de oliveira de verde, frutado de negro, posto em faixa, em chefe e campanha diminuta ondada de azul e prata de tr&ecirc;s burelas. Coroa mural de prata de tr&ecirc;s torres. Listel branco, com a legenda a negro: \"BENQUEREN&Ccedil;A\".", "source": "D.R.III S&eacute;rie n&deg; 211, de 12/09/02" }},
		{ "idf": "meimao", "name": "Meim&atilde;o", "blogs": [ ], "heraldica": { "text": "Escudo de prata, um javali passante de negro, defendido de vermelho, encimado por quatro espigas de trigo de verde, postas em pala e alinhadas em faixa. Coroa mural de prata de tr&ecirc;s torres. Listel branco, com a legenda a negro, em mai&uacute;sculas: \"MEIM&Atilde;O\".", "source": "D.R.III S&eacute;rie n&deg; 267, de 18/11/95" }},
		{ "idf": "meimoa", "name": "Meimoa", "blogs": [ ], "heraldica": { "text": "Escudo de azul, em faixa ponte de sete arcos de prata, lavrada de negro, movente dos flancos; em chefe, escudete de prata carregado de uma cruz da Ordem de Avis e, em campanha, dois ramos de oliveira de prata, frutados de ouro, com os p&eacute;s passadosa em aspa. Coroa mural de prata de tr&ecirc;s torres. Listel branco, com a legenda a negro: \"MEIMOA\".", "source": "D.R.III S&eacute;rie n&deg; 279, de 03/12/03" }},
		{ "idf": "pedrogao_de_sao_pedro", "name": "Pedrog&atilde;o de S&atilde;o Pedro", "blogs": [ ], "heraldica": { "text": "Escudo de prata, duas chaves de vermelho, passadas em aspa; em chefe, uma lan&ccedil;adeira de azul, real&ccedil;ada de ouro e, em campanha, dois ramos de oliveira de verde, frutados de negro, com os p&eacute;s passados em aspa e atados de vermelho. Coroa mural de prata de tr&ecirc;s torres. Listel branco, com a legenda a negro: \"PEDROG&Atilde;O de S. PEDRO\".", "source": "D.R.III S&eacute;rie n&deg;28, de 03/02/99" }},
		{ "idf": "penamacor", "name": "Penamacor", "blogs": [ ], "heraldica": { "text": "Escudo de prata, dois ramos de oliveira de verde, frutados de negro, com os p&eacute;s passados em aspa, entre um alfange e um gl&aacute;dio de azul, real&ccedil;ados de ouro e passados em aspa, em chefe e um monte de dois c&ocirc;moros de negro, real&ccedil;ados de prata, movente da ponta. Coroa mural de prata de quatro torres. Listel branco, com a legenda a negro: \"FREGUESIA de PENAMACOR\".", "source": "D.R.III S&eacute;rie n&deg; 179, de 16/09/2016" }},
		{ "idf": "salvador", "name": "Salvador", "blogs": [ ], "heraldica": { "text": "Escudo de prata, oliveira arrancada de verde e frutada de negro, carregada com uma flor-de-lis de prata, entre duas cabras de p&uacute;rpura, a da dextra voltada. Coroa mural de prata de tr&ecirc;s torres. Listel branco, com a legenda a negro: \"SALVADOR - PENAMACOR\".", "source": "D.R.III S&eacute;rie n&deg; 116, de 20/05/02" }},
		{ "idf": "sao_pedro", "name": "S&atilde;o Pedro", "blogs": [ ], "heraldica": { "text": "", "source": "" }},
		{ "idf": "sao_tiago_penamacor", "name": "S&atilde;o Tiago", "blogs": [ ], "heraldica": { "text": "", "source": "" }},
		{ "idf": "vale_da_senhora_da_povoa", "name": "Vale da Senhora da P&oacute;voa", "blogs": [ ], "heraldica": { "text": "Escudo de ouro, uma mó de vermelho vazia do campo; em chefe, flor-de-lis de azul entre dois gl&aacute;dios de negro, postos em pala; em campanha, vale de verde, movente da ponta e dos flancos. Coroa mural de prata de tr&ecirc;s torres. Listel branco, com a legenda a negro: \"VALE da SENHORA da P&Oacute;VOA\".", "source": "D.R.III S&eacute;rie n&deg; 169, de 24/07/02" }}
	]},
	{ "idc": "proenca_a_nova", "name": "Proen&ccedil;a-a-Nova", "blogs": [ "" ], "freguesias": [
		{ "idf": "alvito_da_beira", "name": "Alvito da Beira", "blogs": [ ], "heraldica": { "text": "Escudo de ouro, pinheiro arrancado de verde com sete pinhas de prata; em chefe, faixeta ondada de azul, prata e azul. Coroa mural de prata de tr&ecirc;s torres. Listel branco, com a legenda a negro: \"ALVITO da BEIRA\".", "source": "D.R.III S&eacute;rie nº 194, de 23/08/02" }},
		{ "idf": "montes_da_senhora", "name": "Montes da Senhora", "blogs": [ ], "heraldica": { "text": "Escudo de prata, oliveira arrancada de verde, frutada de negro; em chefe, coroa Mariana de azul, guarnecida de ouro. Coroa mural de prata de tr&ecirc;s torres. Listel branco, com a legenda a negro: \"MONTES da SENHORA\".", "source": "D.R.III S&eacute;rie nº 294, de 22/12/03" }},
		{ "idf": "peral", "name": "Peral", "blogs": [ ], "heraldica": { "text": "Escudo de prata, duas pereiras arrancadas de verde, frutadas de ouro, alinhadas em faixa; em chefe, folha de serra de vermelho, guarnecida de negro, posta em faixa. Coroa mural de prata de tr&ecirc;s torres. Listel branco, com a legenda a negro: \"PERAL - PROEN&Ccedil;A-a-NOVA\".", "source": "D.R.III S&eacute;rie nº 211, de 12/09/02" }},
		{ "idf": "proenca_a_nova", "name": "Proen&ccedil;a-a-Nova", "blogs": [ ], "heraldica": { "text": "Escudo de vermelho, cruz latina de ouro com seu relic&aacute;rio de prata, assente em peanha do primeiro; em chefe, cruz da Ordem de Malta, de prata, entre duas pinhas de ouro com suas agulhas. Coroa mural de prata de tr&ecirc;s torres. Listel branco, com a legenda a negro, em mai&uacute;sculas: \"FREGUESIA de PROEN&Ccedil;A-a-NOVA\".", "source": "D.R.III S&eacute;rie nº 264, de 14/11/96" }},
		{ "idf": "sao_pedro_do_esteval", "name": "S&atilde;o Pedro do Esteval", "blogs": [ ], "heraldica": { "text": "Escudo de p&uacute;rpura, duas chaves, uma de ouro e outra de prata, passadas em aspa e com os palhet&otilde;es para o chefe, entre dois ramos de oliveira de prata, folhados e frutados de ouro, com os p&eacute;s passados em aspa; campanha ondada de prata e azul de cinco tiras. Coroa mural de prata de tr&ecirc;s torres. Listel branco, com a legenda a negro: \"S. PEDRO do ESTEVAL\".", "source": "D.R.III S&eacute;rie nº 177, de 02/08/02" }},
		{ "idf": "sobreira_formosa", "name": "Sobreira Formosa", "blogs": [ ], "heraldica": { "text": "Escudo de azul, fretado de ouro, tendo brocante um sobreiro arrancado de verde; campanha ondada de prata e azul. Coroa mural de prata de quatro torres. Listel branco, com a legenda a negro: \"SOBREIRA FORMOSA\".", "source": "D.R.III S&eacute;rie nº 166, de 20/07/00" }}
	]},
	{ "idc": "serta", "name": "Sert&atilde;", "blogs": [ "" ], "freguesias": [
		{ "idf": "cabecudo", "name": "Cabe&ccedil;udo", "blogs": [ ], "heraldica": { "text": "Escudo de vermelho, com dois ramos de pinheiro de ouro, frutados de prata, postos em pala e alinhados em faixa; em chefe, cruz da Ordem de Malta e, em campanha, al&ccedil;ado de chafariz com tanque, de prata, lavrado de negro. Coroa mural de prata de tr&ecirc;s torres. Listel branco, com a legenda a negro: \"CABE&Ccedil;UDO\".", "source": "D.R.II S&eacute;rie nº 212, de 03/11/06" }},
		{ "idf": "carvalhal", "name": "Carvalhal", "blogs": [ ], "heraldica": { "text": "Escudo de prata, barra ondada de azul e prata de tr&ecirc;s tiras, acompanhada de um melro de negro, real&ccedil;ado de prata e bicado de ouro e de um carvalho arrancado de verde. Coroa mural de prata de tr&ecirc;s torres. Listel branco, com a legenda a negro: \"CARVALHAL - SERT&Atilde;\".", "source": "D.R.III S&eacute;rie nº 30, de 05/02/02" }},
		{ "idf": "castelo", "name": "Castelo", "blogs": [ ], "heraldica": { "text": "Escudo de verde, castelo de ouro lavrado de negro, aberto e iluminado de vermelho, entre dois pinheiros de ouro arrancados do mesmo; em chefe, pomba do Esp&iacute;rito Santo, de prata, bicada e membrada de vermelho, raiada de ouro. Coroa mural de prata de tr&ecirc;s torres. Listel branco, com a legenda a negro: \"CASTELO - SERT&Atilde;\".", "source": "D.R.III S&eacute;rie nº 107, de 09/05/00" }},
		{ "idf": "cernache_do_bonjardim", "name": "Cernache do Bonjardim", "blogs": [ ], "heraldica": { "text": "Escudo de vermelho, uma faixa ondeada de tr&ecirc;s tiras de prata e azul, acompanhada em chefe de uma cruz flordelisada de prata, vazia do campo e em ponta de dois livros abertos, de ouro. Coroa mural de prata de quatro torres. Listel branco, com a legenda a negro, em mai&uacute;sculas: \"CERNACHE do BONJARDIM\".", "source": "D.R.III S&eacute;rie nº 182, de 08/08/95" }},
		{ "idf": "cumeada", "name": "Cumeada", "blogs": [ ], "heraldica": { "text": "Escudo de ouro, arma&ccedil;&atilde;o de mo&iacute;nho de negro, cordoada do mesmo e vestida de azul, entre cruz da Ordem dos Templ&aacute;rios de vermelho e cruz da Ordem de Malta, filetada de negro, em chefe e monte de tr&ecirc;s c&ocirc;moros de verde, movente da ponta. Coroa mural de prata de tr&ecirc;s torres. Listel branco, com a legenda a negro: \"CUMEADA\".", "source": "D.R.III S&eacute;rie nº 188, de 16/08/02" }},
		{ "idf": "ermida", "name": "Ermida", "blogs": [ ], "heraldica": { "text": "Escudo de prata, monte de tr&ecirc;s c&ocirc;moros de verde, firmado nos flancos e movente de um p&eacute; ondado de prata e azul de tr&ecirc;s tiras, o c&ocirc;moro central rematado por pinheiro de negro, com agulhas de verde e sangrando de ouro para tijelas de vermelho. Coroa mural de prata de tr&ecirc;s torres. Listel branco, com a legenda a negro: \"ERMIDA - SERT&Atilde;\".", "source": "D.R.III S&eacute;rie nº 73, de 27/03/02" }},
		{ "idf": "figueiredo", "name": "Figueiredo", "blogs": [ ], "heraldica": { "text": "Escudo de vermelho, \"Agnus Dei\" de prata, nimbado de ouro, sustendo com a pata uma haste cruzetada do mesmo, com l&aacute;baro de prata carregado de uma cruz firmada de vermelho, entre quatro folhas de figueira de ouro, nervuradas de negro e dispostas em cruz; campanha ondada de prata e azul de tr&ecirc;s tiras. Coroa mural de prata de tr&ecirc;s torres. Listel branco, com a legenda a negro: \"FIGUEIREDO - SERT&Atilde;\".", "source": "D.R.III S&eacute;rie nº 84, de 09/04/01" }},
		{ "idf": "marmeleiro", "name": "Marmeleiro", "blogs": [ ], "heraldica": { "text": "Escudo de vermelho, marmeleiro arrancado de prata e frutado de ouro; em campanha, ponte de tr&ecirc;s arcos de prata, lavrada de negro, firmada nos flancos e movente de um p&eacute; ondado de prata e azul de tr&ecirc;s tiras. Coroa mural de prata de tr&ecirc;s torres. Listel branco, com a legenda a negro: \"MARMELEIRO - SERT&Atilde;\".", "source": "D.R.III S&eacute;rie nº 159, de 12/07/02" }},
		{ "idf": "nesperal", "name": "Nesperal", "blogs": [ ], "heraldica": { "text": "Escudo de verde, uma barra diminuta, denticulada à dextra, de prata, entre uma cruz da Ordem de S&atilde;o Jo&atilde;o de Jerusal&eacute;m, dita de Malta, do mesmo e seis pinhas de ouro postas em pala e alinhadas em barra, 4 e 2. Coroa mural de prata de tr&ecirc;s torres. Listel branco, com a legenda a negro: \"NESPERAL- SERT&Atilde;\".", "source": "D.R.III S&eacute;rie nº 146, de 27/06/00" }},
		{ "idf": "palhais", "name": "Palhais", "blogs": [ ], "heraldica": { "text": "Escudo de vermelho, ponte de tr&ecirc;s arcos de prata, lavrada de negro, firmada nos flancos e movente de campanha diminuta ondada de prata e azul de cinco pe&ccedil;as, encimada por cobertura de colmo de ouro, real&ccedil;ada de negro. Coroa mural de prata de tr&ecirc;s torres. Listel branco, com a legenda a negro: \"PALHAIS - SERT&Atilde;\".", "source": "D.R.III S&eacute;rie nº 165, de 19/07/02" }},
		{ "idf": "pedrogao_pequeno", "name": "Pedrog&atilde;o Pequeno", "blogs": [ ], "heraldica": { "text": "Escudo de vermelho, Agnus Dei de prata, com l&aacute;baro do mesmo, carregado de uma cruz firmada de vermelho e com haste de ouro; em chefe, à dextra, uma cruz da Ordem de S&atilde;o Jo&atilde;o de Jerusal&eacute;m, dita de Malta, de prata; campanha de burelas espigalhadas, de prata e azul. Coroa mural de prata de quatro torres. Listel branco, com a legenda a negro: \"PEDR&Oacute;G&Atilde;O PEQUENO\".", "source": "D.R.III S&eacute;rie nº 39, de 16/02/00" }},
		{ "idf": "serta", "name": "Sert&atilde;", "blogs": [ ], "heraldica": { "text": "Escudo de prata, com dois pinheiros arrancados de verde, frutados de negro; em chefe, sert&atilde; de negro, carregada de seis besantes de ouro, com sua pega apontada para a campanha; ponta de tr&ecirc;s tiras ondadas de azul e prata. Coroa mural de prata de tr&ecirc;s torres. Listel branco, com a legenda a negro: \"FREGUESIA da SERT&Atilde;\".", "source": "D.R.III S&eacute;rie nº 201, de 19/10/05" }},
		{ "idf": "troviscal", "name": "Troviscal", "blogs": [ ], "heraldica": { "text": "Escudo de ouro, pinheiro de verde, entre dois corvos de negro, o da dextra volvido, encimado por um ramo trovisco de sua cor; campanha ondada de tr&ecirc;s tiras de azul e prata. Coroa mural de prata de tr&ecirc;s torres. Listel branco, com a legenda a negro: \"TROVISCAL - SERT&Atilde;\".", "source": "D.R.II S&eacute;rie nº 161, de 15/07/98" }},
		{ "idf": "varzea_dos_cavaleiros", "name": "Varzea dos Cavaleiros", "blogs": [ ], "heraldica": { "text": "Escudo de verde, faixa ondada de prata e azul de tr&ecirc;s tiras, entre duas chaves, uma de ouro e uma de prata, com os palhet&otilde;es para cima, passadas em aspa e atadas de vermelho, em chefe e duas esporas antigas de prata, correadas de ouro, postas e alinhadas em faixa, em contra-chefe. Coroa mural de prata de tr&ecirc;s torres. Listel branco, com a legenda a negro: \"V&Aacute;RZEA DOS CAVALEIROS\".", "source": "D.R.III S&eacute;rie nº 69, de 22/03/00" }}
	]},
	{ "idc": "vila_de_rei", "name": "Vila de Rei", "blogs": [ "" ], "freguesias": [
		{ "idf": "fundada", "name": "Fundada", "blogs": [ ], "heraldica": { "text": "Escudo de vermelho, semeado de ramos de pinheiro com uma pinha, de ouro, com uma ponte de dois arcos de prata, lavrada de negro, movente dos flancos e de campanha ondada, de prata e azul de tr&ecirc;s pe&ccedil;as. Coroa mural de prata de tr&ecirc;s torres. Listel branco, com a legenda a negro: \"FUNDADA\".", "source": "D.R.III S&eacute;rie nº 224, de 22/09/04" }},
		{ "idf": "sao_joao_do_peso", "name": "S&atilde; Jo&atilde;o do Peso", "blogs": [ ], "heraldica": { "text": "Escudo de vermelho, semeado de ramos de oliveira de ouro, frutados de prata, carregado de Agnus Dei de prata, com resplendor de ouro, sustendo com a pata direita vara cruc&iacute;fera do mesmo, com l&aacute;baro de prata carregado de cruz de vermelho; campanha diminuta ondada, de prata e azul de tr&ecirc;s pe&ccedil;as. Coroa mural de prata de tr&ecirc;s torres. Listel branco, com a legenda a negro: \"S. JO&Atilde;O do PESO\".", "source": "D.R.III S&eacute;rie nº 275, de 23/11/04" }},
		{ "idf": "vila_de_rei", "name": "Vila de Rei", "blogs": [ ], "heraldica": { "text": "Escudo de prata, monte de verde, semeado de seixos de ouro, rematado por marco geod&eacute;sico de negro real&ccedil;ado de prata e movente de campanha diminuta ondada de prata e azul de tr&ecirc;s tiras ondadas. Coroa mural de prata de tr&ecirc;s torres. Listel branco, com a legenda a negro: \"FREGUESIA DE VILA DE REI\".", "source": "D.R.III S&eacute;rie nº 131, de 11/07/05" }}
	]},
	{ "idc": "vila_velha_de_rodao", "name": "Vila Velha de R&oacute;d&atilde;o", "blogs": [ "" ], "freguesias": [
		{ "idf": "alfrivida", "name": "Alfrivida", "blogs": [ ], "heraldica": { "text": "", "source": "" }},
		{ "idf": "fratel", "name": "Fratel", "blogs": [ ], "heraldica": { "text": "Escudo de prata, oliveira arrancada de verde, frutada de negro; em campanha, monte de negro carregado de um perfil de veado de ouro e movente de um p&eacute; de burelas ondadas de prata e azul. Coroa mural de prata de tr&ecirc;s torres. Listel branco, com a legenda a negro: \"FRATEL\".", "source": "D.R.III S&eacute;rie nº 112, de 15/05/03" }},
		{ "idf": "perais", "name": "Perais", "blogs": [ ], "heraldica": { "text": "Escudo de prata, asna diminuta ondada de azul e prata de tr&ecirc;s tiras, acompanhada em chefe de cruz da Ordem do Templo e ramo de oliveira de verde, frutado de negro e, em campanha, de um barco de negro, com remos do mesmo real&ccedil;ado de ouro. Coroa mural de prata de tr&ecirc;s torres. Listel branco, com a legenda a negro: \"PERAIS\".", "source": "D.R.III S&eacute;rie nº 270, de 22/11/02" }},
		{ "idf": "sarnadas_de_rodao", "name": "Sarnadas de R&oacute;d&atilde;o", "blogs": [ ], "heraldica": { "text": "Escudo de azul, monte de tr&ecirc;s c&ocirc;moros de prata, movente dos flancos, carregado de uma cotica ondada de azul e encimado por uma oliveira arrancada de ouro, frutada de negro. Coroa mural de tr&ecirc;s torres. Listel branco, com a legenda a negro: \"SARNADAS DE R&Oacute;D&Atilde;O\".", "source": "D.R.III S&eacute;rie nº 237, de 13/10/00" }},
		{ "idf": "vila_velha_de_rodao", "name": "Vila Velha de R&oacute;d&atilde;o", "blogs": [ ], "heraldica": { "text": "Escudo de prata, dois montes de negro moventes dos flancos e de campanha diminuta de prata e azul de tr&ecirc;s pe&ccedil;as ondadas, carregadas de um peixe de vermelho, brocante; em chefe, ramo de oliveira de verde, frutado de negro, posto em pala. Coroa mural de prata de tr&ecirc;s torres. Listel branco, com a legenda a negro: \"FREGUESIA DE VILA VELHA DE R&Oacute;D&Atilde;O\".", "source": "D.R.III S&eacute;rie nº 16, de 20/01/04" }}
	]}
]}
